{
    "/js/app.js": "/js/app.js",
    "/css/app.css": "/css/app.css",
    "/resources/views/vendor/jsvalidation/bootstrap.php": "/resources/views/vendor/jsvalidation/bootstrap.php",
    "/resources/views/vendor/jsvalidation/bootstrap4.php": "/resources/views/vendor/jsvalidation/bootstrap4.php",
    "/resources/views/vendor/jsvalidation/uikit.php": "/resources/views/vendor/jsvalidation/uikit.php"
}
