<svg viewBox="0 0 36 36" fill="none" xmlns="http://www.w3.org/2000/svg">
<g clip-path="url(#clip0)">
<path d="M31.4378 9.81619C31.1059 9.82274 30.7617 9.8823 30.4069 10.0027C29.5553 10.292 28.8111 10.8844 28.3176 11.6345C27.5151 12.8546 27.3057 14.4563 27.8267 15.8105C28.2253 16.8467 28.8065 17.7997 29.4441 18.7036C29.5946 18.9177 31.4457 21.2557 31.4352 21.2668C31.9287 20.6908 32.7299 19.7156 33.48 18.6218C34.4893 17.1484 35.3651 15.5323 35.3651 14.4C35.3651 12.1817 33.7032 9.77038 31.4378 9.81619ZM31.4378 16.3636C29.9939 16.3636 28.8196 15.1894 28.8196 13.7454C28.8196 12.3015 29.9939 11.1273 31.4378 11.1273C32.8817 11.1273 34.056 12.3015 34.056 13.7454C34.056 15.1894 32.8811 16.3636 31.4378 16.3636Z" fill="#EEA2DD"/>
<path d="M4.35346 8.64264C5.60953 10.855 7.62749 13.1328 8.53142 14.1068C8.60146 14.0315 8.67869 13.9477 8.75331 13.8659C8.79782 13.8168 8.83971 13.773 8.88618 13.7219C9.09433 13.4922 9.31949 13.2369 9.5512 12.9685C9.59571 12.9168 9.63825 12.869 9.68342 12.8167C10.8825 11.4107 12.0149 9.92424 12.8966 8.29507C13.2834 7.57965 13.6244 6.823 13.7259 6.01594C14.0964 3.06983 11.6745 0.105399 8.69767 0.00328957C8.64204 0.00132593 8.58575 0.000671387 8.52945 0.000671387C5.64226 0.000671387 3.29309 2.52525 3.29309 5.62976C3.29244 6.47085 3.71986 7.53056 4.35346 8.64264ZM8.5288 1.96365C10.3334 1.96365 11.8015 3.4318 11.8015 5.23638C11.8015 7.04096 10.3334 8.50911 8.5288 8.50911C6.72422 8.50911 5.25607 7.04096 5.25607 5.23638C5.25607 3.4318 6.72422 1.96365 8.5288 1.96365Z" fill="#EEA2DD"/>
<path d="M8.5287 7.19998C9.61318 7.19998 10.4923 6.32083 10.4923 5.23634C10.4923 4.15186 9.61318 3.27271 8.5287 3.27271C7.44421 3.27271 6.56506 4.15186 6.56506 5.23634C6.56506 6.32083 7.44421 7.19998 8.5287 7.19998Z" fill="#EEA2DD"/>
<path d="M31.9137 22.6931C31.7422 22.843 31.5432 22.9392 31.2775 22.8829C30.888 22.7998 30.6033 22.3128 30.3565 22.0294C30.0142 21.636 29.6811 21.2341 29.3603 20.823C28.7189 20.0022 28.1232 19.1448 27.5891 18.25C26.9994 17.261 26.4306 16.1692 26.2539 15.0179C26.0431 13.644 26.4581 12.1575 27.1957 10.999C27.7469 10.1343 28.5035 9.40254 29.4323 8.95876C26.3147 5.33454 21.8475 3.27338 17.0365 3.27338C16.274 3.27338 15.5029 3.32836 14.7339 3.43767C14.7358 3.44356 14.7371 3.4501 14.7391 3.45599C15.2293 5.02821 15.1266 6.53498 14.4727 8.03258C13.8162 9.53607 12.8638 10.91 11.8643 12.2027C11.8525 12.2177 11.772 12.2982 11.7753 12.3166C11.7832 12.3565 12.0024 13.8894 12.4148 14.5767C12.5981 14.8909 12.4999 15.2902 12.1857 15.48C12.0875 15.5396 11.9697 15.5723 11.8519 15.5723C11.6228 15.5723 11.4068 15.4538 11.289 15.2516C10.9892 14.7482 10.783 14.2265 10.6515 13.6924C9.76586 14.726 9.074 15.4335 8.99218 15.516C8.7068 15.804 8.32848 15.7287 8.03589 15.4931C7.54891 15.1017 7.12411 14.5211 6.71109 14.0492C5.72142 12.9174 4.77037 11.7177 3.93909 10.4636C3.88869 10.387 3.83829 10.311 3.78855 10.2338C3.76629 10.1991 3.74273 10.1644 3.72048 10.1297C1.72346 12.9122 0.672913 16.1797 0.672913 19.6377C0.672913 28.6606 8.01364 36.0013 17.0365 36.0013C25.5928 36.0013 32.6363 29.4009 33.3419 21.0233C32.997 21.4573 32.6422 21.8841 32.2763 22.301C32.1605 22.4319 32.0453 22.5785 31.9137 22.6931ZM16.9855 18.8044C16.8808 19.0401 16.6451 19.1906 16.3899 19.1906C16.2917 19.1906 16.2 19.1716 16.1149 19.1317C15.2313 18.7193 14.4328 18.2684 13.7455 17.7833C13.7455 17.7833 13.7389 17.7833 13.7389 17.7768C13.5688 17.6583 13.464 17.4561 13.464 17.246C13.464 17.1085 13.5033 16.9776 13.5819 16.8663C13.7848 16.579 14.2102 16.5063 14.4917 16.7099C15.12 17.155 15.8531 17.5673 16.6648 17.9404C16.992 18.0916 17.136 18.4772 16.9855 18.8044ZM22.0059 20.9193C21.9666 20.9193 21.9273 20.9193 21.8815 20.9055C20.9782 20.7288 20.1011 20.5193 19.2829 20.2844C19.0015 20.2058 18.8051 19.9433 18.8051 19.656C18.8051 19.5964 18.8117 19.5316 18.8313 19.4786C18.9295 19.1382 19.3026 18.9288 19.6429 19.027C20.4284 19.2567 21.2662 19.4524 22.1302 19.6226C22.4837 19.6946 22.7193 20.035 22.6473 20.3884C22.5884 20.6967 22.32 20.9193 22.0059 20.9193ZM27.8575 21.5673C27.8509 21.5673 27.8379 21.5673 27.8313 21.5673C26.9411 21.5339 26.0444 21.475 25.1804 21.3899C24.8466 21.3572 24.5913 21.0764 24.5913 20.7353C24.5913 20.7157 24.5913 20.6895 24.5979 20.6699C24.6306 20.3099 24.9448 20.0546 25.3113 20.0867C26.1557 20.1718 27.0197 20.2313 27.8837 20.2641C28.0539 20.2706 28.2175 20.3426 28.3353 20.467C28.4597 20.5979 28.5186 20.7615 28.512 20.9389C28.4989 21.2924 28.2109 21.5673 27.8575 21.5673Z" fill="#EEA2DD"/>
<path d="M31.4378 15.0546C32.1608 15.0546 32.7469 14.4685 32.7469 13.7455C32.7469 13.0225 32.1608 12.4364 31.4378 12.4364C30.7148 12.4364 30.1287 13.0225 30.1287 13.7455C30.1287 14.4685 30.7148 15.0546 31.4378 15.0546Z" fill="#EEA2DD"/>
</g>
<defs>
<clipPath id="clip0">
<rect width="36" height="36" fill="white"/>
</clipPath>
</defs>
</svg>
