<svg viewBox="0 0 36 36" fill="none" xmlns="http://www.w3.org/2000/svg">
<path d="M32.5147 24.8687L3.41704 24.8476L0.350464 29.6164L35.5745 29.6419L32.5147 24.8687ZM13.5118 28.9534L14.7475 27.4916L21.1804 27.4963L22.4139 28.9599L13.5118 28.9534Z" fill="#50C8EE"/>
<path d="M29.3991 6.28928H6.54803V20.7978H29.3991V6.28928Z" fill="#50C8EE"/>
<path d="M31.9393 3.42166L4.02358 3.40141C3.83285 3.40126 3.67784 3.55628 3.67776 3.74678L3.66327 23.6818L32.2702 23.7025L32.2847 3.76763C32.2848 3.57705 32.13 3.42181 31.9393 3.42166ZM30.5598 21.3897C30.5595 21.7117 30.2986 21.9725 29.9763 21.9723L5.95902 21.9549C5.63673 21.9547 5.37615 21.6934 5.37638 21.3715L5.38773 5.69701C5.38796 5.37503 5.64898 5.11415 5.97127 5.11437L29.9886 5.13178C30.3108 5.132 30.5714 5.39333 30.5711 5.71532L30.5598 21.3897Z" fill="#50C8EE"/>
<path d="M0 30.7822C0.0981651 31.2072 0.326246 32.3001 0.857862 32.5734L35.5864 32.5987C35.906 32.3091 35.9865 31.3116 36 30.8084L0 30.7822Z" fill="#50C8EE"/>
</svg>
