<svg viewBox="0 0 258 258" fill="none" xmlns="http://www.w3.org/2000/svg">
<path opacity="0.1" d="M178.278 238.136V256.404H204.993H234.456V238.136H178.278Z" fill="url(#paint0_linear)"/>
<path opacity="0.15" d="M175.922 233.033V238.136H236.42V233.033H204.993H175.922Z" fill="url(#paint1_linear)"/>
<path opacity="0.15" d="M206.174 256.404H234.456V238.136H236.42V233.033H204.993V237.664L206.174 256.404Z" fill="url(#paint2_linear)"/>
<path d="M197.528 241.082H186.135V243.83H197.528V241.082Z" fill="#E0E0E0"/>
<path d="M199.3 247.273H184.668V253.079H199.3V247.273Z" fill="#FAFAFA"/>
<path opacity="0.15" d="M192.556 213L192.475 206.131L216.536 208.189L217.288 214.982L192.556 213Z" fill="url(#paint3_linear)"/>
<path opacity="0.1" d="M197.749 209.256L197.644 210.488L212.693 211.775L212.799 210.543L197.749 209.256Z" fill="url(#paint4_linear)"/>
<path opacity="0.2" d="M189.684 206.479L189.678 199.611L213.72 201.923L214.329 208.064L189.684 206.479Z" fill="url(#paint5_linear)"/>
<path d="M189.678 200.543L189.665 205.18L213.092 206.902L212.701 202.632L189.678 200.543Z" fill="white"/>
<path opacity="0.2" d="M211.315 204.41C211.032 204.44 210.746 204.44 210.463 204.41L208.163 204.229C206.218 204.062 203.533 203.813 200.574 203.515C197.615 203.216 194.936 202.924 192.997 202.7L190.703 202.414C190.419 202.394 190.138 202.344 189.864 202.265C190.148 202.239 190.433 202.239 190.716 202.265L193.016 202.445C194.961 202.613 197.64 202.868 200.605 203.166C203.57 203.465 206.249 203.751 208.182 203.981L210.476 204.26C210.76 204.281 211.041 204.331 211.315 204.41Z" fill="url(#paint6_linear)"/>
<path opacity="0.2" d="M211.265 204.988C210.98 205.019 210.692 205.019 210.407 204.988L208.082 204.876C206.125 204.77 203.414 204.602 200.425 204.391C197.435 204.18 194.725 203.981 192.767 203.813L190.449 203.602C190.163 203.592 189.88 203.55 189.603 203.477C189.888 203.449 190.176 203.449 190.461 203.477L192.786 203.583C194.75 203.689 197.46 203.863 200.45 204.068C203.439 204.273 206.143 204.484 208.101 204.652L210.42 204.863C210.704 204.88 210.987 204.921 211.265 204.988Z" fill="url(#paint7_linear)"/>
<path opacity="0.25" d="M192.829 219.327L192.742 212.459L216.809 214.498L217.493 220.633L192.829 219.327Z" fill="url(#paint8_linear)"/>
<path d="M195.483 219.47C195.278 218.355 195.181 217.223 195.191 216.089C195.09 214.959 195.101 213.823 195.222 212.695C195.424 213.811 195.522 214.943 195.514 216.077C195.612 217.206 195.601 218.343 195.483 219.47Z" fill="#F5F5F5"/>
<path d="M196.391 212.77C196.574 213.885 196.653 215.015 196.627 216.145C196.705 217.272 196.674 218.405 196.534 219.526C196.351 218.411 196.272 217.281 196.298 216.151C196.219 215.024 196.25 213.891 196.391 212.77Z" fill="#F5F5F5"/>
<path d="M198.579 215.791C202.774 216.257 207.703 216.524 211.967 216.903L198.579 215.791Z" fill="white"/>
<path d="M211.967 216.903C211.31 216.934 210.652 216.918 209.997 216.853C208.785 216.785 207.113 216.679 205.261 216.543C203.408 216.406 201.736 216.251 200.524 216.108C199.867 216.063 199.216 215.957 198.579 215.791C199.237 215.771 199.895 215.8 200.549 215.878L205.285 216.219C207.15 216.356 208.81 216.499 210.016 216.623C210.673 216.658 211.326 216.752 211.967 216.903Z" fill="#F5F5F5"/>
<path d="M213.726 220.434C213.517 219.424 213.413 218.395 213.416 217.363C213.306 216.34 213.306 215.309 213.416 214.286C213.626 215.294 213.73 216.321 213.726 217.351C213.835 218.375 213.835 219.409 213.726 220.434Z" fill="#F5F5F5"/>
<path d="M215.212 220.508C214.947 219.506 214.791 218.479 214.746 217.444C214.591 216.416 214.543 215.374 214.603 214.336C214.864 215.337 215.02 216.361 215.069 217.394C215.224 218.425 215.272 219.468 215.212 220.508Z" fill="#F5F5F5"/>
<path d="M202.153 217.332C204.801 217.512 206.821 217.643 208.934 217.693L202.153 217.332Z" fill="white"/>
<path d="M208.934 217.693C207.803 217.799 206.665 217.799 205.534 217.693C204.399 217.686 203.266 217.571 202.153 217.351C203.283 217.241 204.422 217.241 205.553 217.351C206.688 217.359 207.82 217.474 208.934 217.693Z" fill="#F5F5F5"/>
<path d="M194.445 232.741L193.991 225.885L218.133 226.649L219.14 232.735L194.445 232.741Z" fill="#E0E0E0"/>
<path d="M195.402 231.877L218.892 231.541L218.239 227.277L194.961 226.848L195.402 231.877Z" fill="#FAFAFA"/>
<path opacity="0.2" d="M195.104 226.022L194.88 219.159L218.979 220.732L219.78 226.842L195.104 226.022Z" fill="url(#paint9_linear)"/>
<path opacity="0.1" d="M200.213 222.16L200.132 223.394L215.205 224.374L215.285 223.14L200.213 222.16Z" fill="url(#paint10_linear)"/>
<path d="M218.481 229.03C218.176 229.085 217.865 229.108 217.555 229.098L215.069 229.161C212.943 229.198 210.016 229.229 206.777 229.241C203.539 229.254 200.611 229.241 198.485 229.241L195.999 229.204C195.689 229.213 195.379 229.193 195.073 229.142C195.377 229.091 195.685 229.068 195.993 229.074L198.51 229.011C200.63 228.974 203.564 228.949 206.802 228.937C210.04 228.924 212.974 228.937 215.094 228.937L217.58 228.98C217.881 228.971 218.183 228.988 218.481 229.03Z" fill="#E0E0E0"/>
<path d="M218.755 230.36C218.447 230.41 218.134 230.429 217.822 230.416H215.293C213.155 230.416 210.202 230.416 206.945 230.348C203.688 230.279 200.729 230.248 198.597 230.186L196.055 230.112C195.745 230.118 195.434 230.093 195.129 230.037C195.435 229.992 195.746 229.975 196.055 229.987H198.585C200.723 229.987 203.676 229.987 206.939 230.056C210.202 230.124 213.154 230.161 215.286 230.217L217.816 230.304C218.13 230.299 218.444 230.318 218.755 230.36Z" fill="#E0E0E0"/>
<path opacity="0.15" d="M15.4952 186.931C12.4744 187.416 11.1442 191.127 11.3929 194.179C11.6415 197.23 12.9095 200.202 12.5738 203.241C12.145 207.107 9.22979 210.37 8.88792 214.237C8.49012 218.799 11.7161 222.852 12.6795 227.327C13.1457 229.509 13.0835 231.815 13.9226 233.891C14.6168 235.655 15.9003 237.124 17.5551 238.048C19.2098 238.973 21.1337 239.296 22.9997 238.963C24.8658 238.63 26.5589 237.661 27.7913 236.22C29.0238 234.78 29.7195 232.958 29.7602 231.063C29.8286 227.557 27.6656 224.256 27.8955 220.757C28.0944 218.177 29.6049 215.728 29.2816 213.161C28.8963 210.103 26.0619 207.928 25.0612 205.013C24.0604 202.097 25.0239 198.884 24.6758 195.82C24.0542 190.325 21.0085 186.496 15.4952 186.931Z" fill="url(#paint11_linear)"/>
<path opacity="0.15" d="M0.0740839 213.547C-0.441819 218.637 1.81448 224.629 4.42507 229.03C7.07894 233.454 11.0712 236.92 15.8247 238.925C16.3592 239.149 17.0243 239.336 17.4718 238.969C17.6305 238.794 17.7498 238.587 17.8216 238.361C17.8935 238.136 17.9162 237.898 17.8883 237.664C17.9241 232.258 16.2069 226.986 12.9942 222.638C9.78138 218.29 5.24605 215.1 0.0678668 213.547" fill="url(#paint12_linear)"/>
<path d="M22.2579 249.573C22.2004 249.483 22.1525 249.387 22.1149 249.287C22.0217 249.069 21.8974 248.796 21.7544 248.454C21.4436 247.727 20.9899 246.683 20.4056 245.396C18.8885 242.048 17.1997 238.78 15.346 235.606C13.4878 232.435 11.4693 229.36 9.29815 226.395C8.46525 225.257 7.78152 224.343 7.29669 223.722L6.74971 222.995C6.68019 222.912 6.61975 222.823 6.56946 222.727C6.65274 222.795 6.72783 222.872 6.79322 222.957L7.38371 223.647C7.8934 224.269 8.62685 225.145 9.46597 226.27C11.6912 229.21 13.7398 232.28 15.6009 235.463C17.4524 238.646 19.1129 241.935 20.5734 245.315C21.1328 246.608 21.5617 247.671 21.8166 248.423C21.9471 248.771 22.0466 249.045 22.1336 249.281C22.1898 249.371 22.2318 249.47 22.2579 249.573Z" fill="#E0E0E0"/>
<path d="M18.9822 201.022C18.9822 201.022 18.9822 201.19 19.0382 201.513C19.0941 201.836 19.0941 202.321 19.1376 202.912C19.2184 204.155 19.3303 205.914 19.4671 208.071C19.7468 212.422 20.1322 218.451 20.5983 225.095C21.0645 231.74 21.5307 237.757 21.8415 242.114C22.0031 244.271 22.1398 246.024 22.2331 247.267C22.2766 247.857 22.3076 248.324 22.3325 248.672C22.3476 248.835 22.3476 248.999 22.3325 249.163C22.2924 249.004 22.2675 248.841 22.2579 248.678L22.1087 247.279C21.9906 246.036 21.829 244.283 21.6239 242.127C21.2323 237.776 20.7413 231.765 20.2751 225.114C19.8089 218.463 19.4484 212.447 19.2309 208.083C19.1252 205.926 19.0444 204.167 18.9885 202.918C18.9885 202.327 18.9512 201.861 18.9387 201.513C18.9382 201.348 18.9527 201.184 18.9822 201.022Z" fill="#E0E0E0"/>
<path opacity="0.15" d="M14.2957 242.313H27.0503V251.674C27.0503 253.298 26.4052 254.855 25.257 256.003C24.1089 257.151 22.5516 257.796 20.9278 257.796C19.3606 257.797 17.8528 257.197 16.715 256.119C15.5771 255.041 14.8959 253.568 14.8116 252.003L14.2957 242.313Z" fill="url(#paint13_linear)"/>
<path opacity="0.1" d="M199.704 20.4498L196.335 51.7023H239.49L243.071 20.4498H199.704Z" fill="url(#paint14_linear)"/>
<path opacity="0.05" d="M201.481 22.6937L198.206 50.0427H237.153L240.305 22.6937H201.481Z" fill="url(#paint15_linear)"/>
<path opacity="0.2" d="M208.033 27.2933L206.019 45.4431H230.596L231.858 27.2933H208.033Z" fill="url(#paint16_linear)"/>
<path opacity="0.1" d="M241.529 33.9068L250.442 51.8328L239.49 51.7023L241.666 32.7382" fill="url(#paint17_linear)"/>
<path opacity="0.2" d="M250.592 55.4255H246.707V65.1469H250.592V55.4255Z" fill="url(#paint18_linear)"/>
<path opacity="0.2" d="M193.737 55.4255H189.852V65.1469H193.737V55.4255Z" fill="url(#paint19_linear)"/>
<path opacity="0.2" d="M257.702 51.895H181.871V55.9974H257.702V51.895Z" fill="url(#paint20_linear)"/>
<path d="M173.486 166.593C162.764 159.134 160.327 145.199 160.756 132.699C160.825 130.617 160.595 128.417 161.589 126.583C162.584 124.749 164.896 123.506 166.761 124.383C168.314 125.11 168.986 126.912 169.868 128.404C171.026 130.392 172.722 132.012 174.76 133.078C176.09 133.768 177.731 134.191 179.043 133.464C180.845 132.475 181.057 129.989 181.044 127.913L180.97 116.308C180.97 114.239 180.97 112.119 181.591 110.149C182.213 108.178 183.661 106.351 185.631 105.798C187.602 105.244 190.051 106.382 190.467 108.414C190.545 109.272 190.564 110.134 190.523 110.994C190.585 111.858 190.983 112.809 191.804 113.051C192.624 113.294 193.463 112.703 194.079 112.1C196.223 110.006 197.677 107.302 199.051 104.641C200.425 101.981 201.73 99.2089 203.669 96.9216C205.609 94.6342 208.3 92.8254 211.271 92.6576C214.242 92.4898 217.412 94.3234 218.164 97.2386C218.916 100.154 217.189 103.119 215.324 105.481C212.568 108.994 209.319 112.09 205.677 114.674C204.97 115.073 204.409 115.687 204.073 116.426C203.62 117.813 204.931 119.186 206.299 119.64C207.846 120.156 209.525 119.994 211.141 120.187C212.757 120.38 214.51 121.088 215.125 122.617C215.97 124.737 214.199 126.968 212.452 128.417C208.956 131.334 204.985 133.628 200.711 135.198C199.182 135.757 197.603 136.242 196.36 137.317C195.117 138.393 194.383 140.251 195.117 141.718C195.85 143.185 197.771 143.645 199.368 143.347C200.966 143.048 202.401 142.184 203.924 141.612C206.771 140.537 210.457 140.73 212.284 143.197C213.484 144.814 213.59 147.07 212.98 149.003C212.283 150.904 211.214 152.647 209.835 154.131C205.316 159.559 199.437 163.69 192.798 166.102C186.185 168.396 180.056 169.017 173.486 166.612" fill="#53EA98"/>
<path d="M215.137 94.3793C215.076 94.4484 215.009 94.5128 214.938 94.572L214.317 95.1252C213.776 95.6038 212.974 96.3124 211.967 97.251C209.117 99.901 206.468 102.76 204.042 105.804C202.495 107.731 200.891 109.906 199.213 112.274C197.534 114.643 195.763 117.197 193.998 119.945C192.128 122.802 190.418 125.761 188.876 128.808C188.074 130.393 187.366 132.053 186.632 133.75C185.899 135.446 185.178 137.156 184.432 138.89C181.599 145.404 179.132 152.072 177.041 158.861C175.356 164.415 174.197 170.115 173.579 175.886C173.178 179.779 173.114 183.699 173.386 187.602C173.498 188.982 173.604 190.058 173.697 190.779C173.741 191.127 173.772 191.4 173.797 191.605C173.805 191.7 173.805 191.796 173.797 191.891C173.77 191.8 173.749 191.706 173.735 191.612C173.703 191.406 173.66 191.139 173.604 190.791C173.48 190.07 173.349 189.001 173.219 187.615C172.889 183.703 172.914 179.769 173.293 175.861C173.875 170.064 175.012 164.336 176.687 158.755C178.761 151.948 181.224 145.265 184.065 138.741L186.272 133.594C186.999 131.904 187.72 130.231 188.522 128.622C190.078 125.565 191.8 122.595 193.681 119.727C195.458 116.98 197.249 114.437 198.933 112.069C200.617 109.701 202.252 107.532 203.812 105.617C206.271 102.589 208.967 99.7598 211.874 97.1578C212.893 96.2378 213.739 95.5417 214.273 95.0817L214.895 94.5596C214.97 94.4919 215.051 94.4315 215.137 94.3793Z" fill="#263238"/>
<path d="M188.658 128.622C188.557 128.336 188.488 128.04 188.453 127.739C188.348 127.167 188.217 126.328 188.068 125.296C187.776 123.233 187.446 120.367 187.142 117.216C186.837 114.064 186.464 111.199 186.141 109.135C185.986 108.11 185.849 107.271 185.743 106.705C185.673 106.41 185.633 106.107 185.625 105.804C185.747 106.082 185.835 106.374 185.886 106.674C186.035 107.24 186.216 108.06 186.408 109.086C186.8 111.143 187.192 114.002 187.521 117.166C187.85 120.33 188.143 123.114 188.335 125.246C188.441 126.216 188.528 127.037 188.603 127.695C188.656 128.001 188.674 128.312 188.658 128.622Z" fill="#263238"/>
<path d="M215.324 123.637C214.972 123.714 214.614 123.758 214.255 123.767C213.571 123.829 212.583 123.91 211.364 124.053C208.915 124.314 205.553 124.799 201.867 125.489C198.181 126.179 194.887 126.993 192.512 127.615C191.319 127.919 190.362 128.193 189.696 128.379C189.36 128.499 189.012 128.584 188.658 128.634C188.978 128.474 189.311 128.341 189.653 128.236C190.306 128.006 191.25 127.689 192.438 127.347C194.806 126.651 198.113 125.831 201.811 125.122C204.964 124.516 208.147 124.072 211.346 123.792C212.589 123.686 213.571 123.643 214.261 123.63C214.615 123.601 214.97 123.604 215.324 123.637Z" fill="#263238"/>
<path d="M177.035 158.264C176.959 158.166 176.898 158.057 176.855 157.941L176.401 156.978C176.003 156.139 175.469 154.908 174.829 153.379C173.542 150.321 171.895 146.044 170.142 141.302C168.389 136.559 166.792 132.27 165.567 129.187C164.946 127.695 164.473 126.465 164.113 125.545C163.951 125.147 163.827 124.824 163.721 124.557C163.666 124.443 163.628 124.321 163.609 124.196C163.686 124.296 163.746 124.407 163.789 124.525C163.914 124.78 164.063 125.104 164.243 125.489C164.641 126.328 165.176 127.559 165.816 129.088C167.102 132.14 168.75 136.416 170.502 141.165C172.255 145.914 173.853 150.196 175.077 153.273L176.532 156.915C176.693 157.313 176.818 157.643 176.923 157.91C176.977 158.022 177.014 158.142 177.035 158.264Z" fill="#263238"/>
<path d="M212.483 146.84C212.374 146.904 212.257 146.954 212.135 146.989L211.103 147.331L207.312 148.574C204.104 149.612 199.691 151.104 194.824 152.751C189.958 154.398 185.501 155.859 182.294 156.822C180.677 157.307 179.372 157.686 178.458 157.935L177.408 158.208C177.172 158.271 177.041 158.295 177.035 158.277C177.147 158.214 177.266 158.166 177.389 158.134L178.421 157.792L182.213 156.549C185.42 155.511 189.827 154.019 194.7 152.372C199.573 150.725 204.024 149.264 207.231 148.301C208.841 147.816 210.152 147.43 211.06 147.188L212.11 146.914C212.231 146.873 212.356 146.848 212.483 146.84Z" fill="#263238"/>
<path d="M182.026 164.02C183.112 164.019 184.179 163.731 185.117 163.185C186.056 162.64 186.834 161.855 187.372 160.912C187.893 159.961 188.219 158.915 188.331 157.836C188.443 156.757 188.339 155.666 188.024 154.628C187.751 153.665 187.254 152.664 186.334 152.266C185.893 152.106 185.417 152.068 184.955 152.154C184.494 152.24 184.064 152.449 183.711 152.757C183.011 153.384 182.488 154.183 182.194 155.076C181.057 158.084 180.516 161.192 182.026 164.026" fill="#455A64"/>
<path d="M180.87 169.794C183.16 169.714 185.435 170.179 187.509 171.152C189.583 172.124 191.396 173.577 192.798 175.389C193.5 176.315 194.097 177.589 193.507 178.59C192.916 179.59 191.499 179.69 190.355 179.491C187.966 179.044 185.763 177.898 184.025 176.199C182.286 174.499 181.091 172.322 180.59 169.944" fill="#455A64"/>
<path d="M208.698 161.751C208.115 160.974 207.382 160.323 206.541 159.837C205.7 159.351 204.77 159.04 203.806 158.923C201.873 158.701 199.915 158.924 198.081 159.576C194.514 160.726 191.244 163.548 188.758 166.376C192.065 168.906 196.888 168.663 199.325 168.39C203.178 167.955 209.891 164.828 208.648 161.751" fill="#455A64"/>
<path d="M172.435 170.124C173.047 169.978 173.649 169.795 174.238 169.577C176.417 168.644 178.46 167.421 180.311 165.941C182.175 164.431 183.595 162.444 184.419 160.191C184.654 159.505 184.804 158.794 184.867 158.072C184.908 157.808 184.908 157.54 184.867 157.276C184.7 158.227 184.461 159.164 184.152 160.079C183.269 162.237 181.858 164.14 180.05 165.611C178.219 167.061 176.23 168.297 174.12 169.297" fill="#263238"/>
<path d="M172.355 170.136L175.804 169.372C178.72 168.719 182.747 167.83 187.204 166.885C191.661 165.941 195.713 165.182 198.647 164.623L202.122 163.952C202.544 163.89 202.96 163.79 203.365 163.653C202.931 163.667 202.499 163.712 202.072 163.79C201.245 163.902 200.052 164.088 198.579 164.331C195.626 164.816 191.567 165.574 187.105 166.475C182.642 167.377 178.614 168.34 175.717 169.061C174.269 169.421 173.101 169.726 172.292 169.95" fill="#263238"/>
<path d="M189.218 175.612C189.111 175.385 188.971 175.176 188.801 174.991C188.633 174.749 188.446 174.52 188.242 174.307C187.985 174.01 187.711 173.727 187.422 173.462C186.679 172.76 185.867 172.135 184.997 171.597C183.929 170.945 182.793 170.412 181.61 170.006C180.416 169.619 179.185 169.361 177.936 169.235C176.919 169.141 175.894 169.151 174.878 169.266C174.487 169.301 174.099 169.361 173.716 169.446C173.425 169.493 173.138 169.562 172.858 169.651C172.392 169.788 172.299 169.962 172.305 169.987C173.163 169.799 174.03 169.656 174.903 169.558C175.902 169.491 176.904 169.512 177.899 169.62C180.337 169.887 182.69 170.673 184.799 171.926C185.658 172.439 186.469 173.028 187.223 173.685C188.516 174.798 189.162 175.662 189.218 175.612Z" fill="#263238"/>
<path d="M160.787 204.31L91.4636 203.987C89.4809 203.978 87.5193 203.579 85.691 202.812C83.8627 202.045 82.2033 200.925 80.8077 199.517C79.4121 198.108 78.3075 196.439 77.5571 194.604C76.8066 192.768 76.425 190.803 76.434 188.821L77.1674 15.0359C77.1764 13.0524 77.576 11.0901 78.3433 9.26101C79.1106 7.43191 80.2307 5.77187 81.6397 4.37567C83.0486 2.97946 84.7187 1.87444 86.5546 1.12369C88.3906 0.372933 90.3565 -0.00884371 92.34 0.000155465L161.657 0.323372C165.661 0.341467 169.493 1.94866 172.311 4.79156C175.13 7.63446 176.704 11.4803 176.687 15.4835L175.954 189.268C175.946 191.252 175.548 193.215 174.782 195.045C174.015 196.874 172.896 198.535 171.488 199.932C170.079 201.329 168.409 202.435 166.573 203.186C164.737 203.937 162.771 204.319 160.787 204.31Z" fill="#263238"/>
<path d="M161.558 6.32153L148.12 6.25937C147.682 6.26665 147.249 6.36027 146.847 6.53485C146.446 6.70943 146.082 6.96156 145.778 7.2768C145.474 7.59204 145.234 7.96419 145.074 8.37196C144.914 8.77973 144.836 9.2151 144.844 9.65315V12.0897C144.852 12.528 144.774 12.9637 144.614 13.3718C144.454 13.78 144.215 14.1525 143.91 14.4683C143.606 14.784 143.243 15.0367 142.841 15.212C142.439 15.3872 142.007 15.4816 141.568 15.4897L115.369 15.3654C114.484 15.341 113.645 14.9668 113.036 14.3248C112.427 13.6828 112.097 12.8254 112.118 11.9405L112.143 9.5164C112.165 8.63153 111.835 7.77414 111.226 7.13215C110.616 6.49017 109.777 6.11596 108.892 6.09155H104.168L92.4021 6.03561C91.0098 6.02824 89.6297 6.29611 88.3413 6.82384C87.0528 7.35156 85.8813 8.12873 84.8942 9.11067C83.907 10.0926 83.1237 11.26 82.5892 12.5456C82.0546 13.8313 81.7795 15.2099 81.7795 16.6023L81.0647 186.16C81.0581 187.549 81.3252 188.924 81.8506 190.209C82.3759 191.494 83.1494 192.663 84.1266 193.649C85.1039 194.635 86.2658 195.419 87.546 195.955C88.8263 196.492 90.1997 196.771 91.5879 196.777L160.769 197.1C162.161 197.107 163.541 196.839 164.829 196.312C166.118 195.784 167.289 195.007 168.277 194.025C169.264 193.043 170.047 191.876 170.582 190.59C171.116 189.304 171.391 187.926 171.391 186.533L172.112 16.9069C172.115 15.5187 171.844 14.1437 171.314 12.8603C170.785 11.577 170.008 10.4104 169.028 9.42743C168.048 8.44441 166.884 7.66414 165.602 7.13122C164.32 6.5983 162.946 6.32316 161.558 6.32153Z" fill="#FAFAFA"/>
<path d="M136.869 26.4479H119.024V29.7236H136.869V26.4479Z" fill="#455A64"/>
<path d="M97.959 54.0394C98.1015 54.0429 98.2432 54.0616 98.3817 54.0954C98.5096 54.0615 98.641 54.0427 98.7732 54.0394H97.959Z" fill="#455A64"/>
<path d="M102.851 45.0516C102.523 44.5986 102.124 44.2019 101.67 43.8768C100.717 43.1741 99.5651 42.795 98.3816 42.795C97.1982 42.795 96.0458 43.1741 95.0935 43.8768C94.637 44.2018 94.2361 44.5985 93.9063 45.0516C93.5809 45.4768 93.325 45.9509 93.148 46.4563C92.8238 47.3331 92.7244 48.2772 92.859 49.2023C92.9937 50.1274 93.358 51.0041 93.9188 51.7521C93.9871 51.8453 94.0617 51.9261 94.1301 52.0069C94.3607 51.2647 94.8017 50.6053 95.3997 50.1088C95.9977 49.6123 96.727 49.3 97.499 49.2099C97.0164 48.999 96.6065 48.6508 96.3203 48.2088C96.034 47.7667 95.8841 47.2502 95.8891 46.7236C95.8648 46.3773 95.912 46.0297 96.0278 45.7024C96.1436 45.3752 96.3256 45.0752 96.5623 44.8213C96.799 44.5674 97.0854 44.3649 97.4038 44.2265C97.7221 44.088 98.0656 44.0166 98.4127 44.0166C98.7599 44.0166 99.1033 44.088 99.4216 44.2265C99.74 44.3649 100.026 44.5674 100.263 44.8213C100.5 45.0752 100.682 45.3752 100.798 45.7024C100.913 46.0297 100.961 46.3773 100.936 46.7236C100.941 47.2493 100.792 47.765 100.507 48.2068C100.222 48.6487 99.8136 48.9974 99.3326 49.2099C100.096 49.3018 100.816 49.6149 101.403 50.1108C101.991 50.6067 102.421 51.2637 102.639 52.0007L102.845 51.7521C103.405 51.0041 103.77 50.1274 103.904 49.2023C104.039 48.2772 103.94 47.3331 103.615 46.4563C103.434 45.9518 103.176 45.478 102.851 45.0516Z" fill="#FAFAFA"/>
<path d="M103.926 46.3444C103.742 45.8061 103.473 45.3004 103.13 44.8464C102.784 44.3691 102.365 43.9496 101.887 43.6033C100.875 42.8524 99.6481 42.4471 98.3878 42.4471C97.1275 42.4471 95.9006 42.8524 94.8884 43.6033C94.4093 43.9475 93.9895 44.3674 93.6453 44.8464C93.3027 45.3017 93.0322 45.8069 92.8434 46.3444C92.4896 47.3409 92.408 48.4138 92.6072 49.4523C92.7784 50.3578 93.1619 51.2099 93.7261 51.9386C94.5355 52.9885 95.6847 53.7245 96.9769 54.0208C97.321 54.1032 97.6735 54.145 98.0273 54.1451C98.149 54.1614 98.2724 54.1614 98.3941 54.1451C98.2556 54.1114 98.1139 54.0926 97.9714 54.0892H98.7856C98.6534 54.0925 98.522 54.1113 98.3941 54.1451C98.5158 54.1614 98.6391 54.1614 98.7608 54.1451C99.1146 54.145 99.4672 54.1032 99.8112 54.0208C101.102 53.7242 102.249 52.9881 103.056 51.9386C103.625 51.2118 104.01 50.3592 104.181 49.4523C104.377 48.4123 104.289 47.3386 103.926 46.3444ZM103.87 49.3901C103.714 50.2595 103.354 51.0796 102.82 51.7832L102.615 52.0318C102.396 51.2947 101.966 50.6378 101.378 50.1419C100.791 49.646 100.071 49.3328 99.3078 49.2409C99.7887 49.0285 100.197 48.6798 100.482 48.2379C100.767 47.7961 100.916 47.2804 100.911 46.7547C100.936 46.4084 100.889 46.0608 100.773 45.7335C100.657 45.4063 100.475 45.1063 100.238 44.8524C100.002 44.5985 99.7151 44.396 99.3968 44.2575C99.0784 44.1191 98.735 44.0476 98.3878 44.0476C98.0407 44.0476 97.6973 44.1191 97.3789 44.2575C97.0606 44.396 96.7741 44.5985 96.5374 44.8524C96.3007 45.1063 96.1188 45.4063 96.003 45.7335C95.8872 46.0608 95.8399 46.4084 95.8643 46.7547C95.8592 47.2813 96.0091 47.7978 96.2954 48.2398C96.5816 48.6819 96.9915 49.0301 97.4741 49.2409C96.7021 49.3311 95.9729 49.6434 95.3749 50.1399C94.7769 50.6364 94.3358 51.2957 94.1052 52.038C94.0368 51.9572 93.9623 51.8764 93.8939 51.7832C93.3331 51.0351 92.9688 50.1585 92.8342 49.2334C92.6995 48.3083 92.7989 47.3642 93.1231 46.4874C93.3001 45.982 93.556 45.5079 93.8815 45.0826C94.2113 44.6296 94.6122 44.2329 95.0687 43.9079C96.021 43.2052 97.1733 42.8261 98.3568 42.8261C99.5402 42.8261 100.693 43.2052 101.645 43.9079C102.099 44.233 102.498 44.6297 102.826 45.0826C103.151 45.5091 103.409 45.9829 103.59 46.4874C103.939 47.4132 104.035 48.4148 103.87 49.3901Z" fill="#455A64"/>
<path d="M165.536 59.2731C165.536 59.2731 165.716 59.2731 166.052 59.2047C166.55 59.1018 167.009 58.8605 167.376 58.5086C167.67 58.2235 167.898 57.8766 168.042 57.4928C168.186 57.109 168.243 56.698 168.209 56.2895C168.209 55.3013 168.209 54.1638 168.209 52.8896C168.209 50.3287 168.209 47.2022 168.178 43.566C168.178 42.6585 168.178 41.7013 168.178 40.7441C168.203 40.2616 168.095 39.7815 167.866 39.3562C167.637 38.9309 167.295 38.5767 166.879 38.3324C166.021 37.7916 164.902 38.0278 163.827 37.9781H160.483L89.0022 38.0278C88.5947 38.0294 88.1935 38.1277 87.8315 38.3147C87.4695 38.5016 87.1571 38.7719 86.9199 39.1031C86.6834 39.4343 86.5319 39.8185 86.4786 40.222C86.4468 40.6355 86.4364 41.0505 86.4475 41.4651V56.6252C86.4655 57.009 86.5699 57.3839 86.7528 57.7218C86.9358 58.0597 87.1926 58.352 87.5042 58.5769C87.8118 58.8016 88.1669 58.9526 88.5422 59.0182C88.934 59.0645 89.329 59.079 89.7232 59.0618H103.808L135.937 59.099L157.592 59.155L163.485 59.1861H165.014C165.362 59.1861 165.536 59.1861 165.536 59.1861H165.014H163.485L157.592 59.2234L135.937 59.2793L103.808 59.3166H89.7232C89.3081 59.3306 88.8926 59.314 88.48 59.2669C87.8326 59.1507 87.2438 58.818 86.8101 58.3234C86.3765 57.8287 86.1237 57.2015 86.0932 56.5444C86.0932 53.2501 86.0932 49.9019 86.0932 46.4998V41.3657C86.0932 40.9306 86.0932 40.5141 86.0932 40.0479C86.1608 39.5997 86.3333 39.1737 86.5967 38.8048C86.8651 38.4223 87.2214 38.1097 87.6357 37.8934C88.0499 37.6771 88.51 37.5633 88.9773 37.5616L160.458 37.6114H165.43C165.976 37.5909 166.516 37.729 166.984 38.0092C167.434 38.2752 167.801 38.6591 168.048 39.1193C168.294 39.5795 168.41 40.0984 168.383 40.6198C168.383 41.5894 168.383 42.5342 168.383 43.4417C168.383 47.0717 168.383 50.1982 168.352 52.7652C168.352 54.0395 168.352 55.1769 168.352 56.1652C168.38 56.587 168.314 57.0098 168.16 57.4032C168.005 57.7966 167.765 58.1507 167.457 58.4402C167.075 58.7923 166.601 59.0275 166.089 59.1177C165.914 59.1965 165.727 59.2489 165.536 59.2731Z" fill="#455A64"/>
<path d="M129.647 43.4293H109.458V44.9459H129.647V43.4293Z" fill="#455A64"/>
<path d="M144.825 51.9821H109.458V53.4987H144.825V51.9821Z" fill="#455A64"/>
<path d="M160.713 47.6H109.458V49.1166H160.713V47.6Z" fill="#455A64"/>
<path d="M97.959 107.594C98.2325 107.631 98.3817 107.631 98.3817 107.656C98.5096 107.622 98.641 107.603 98.7732 107.6L97.959 107.594Z" fill="#455A64"/>
<path d="M102.851 98.6122C102.525 98.1579 102.126 97.7609 101.67 97.4375C100.717 96.7348 99.5651 96.3557 98.3816 96.3557C97.1982 96.3557 96.0458 96.7348 95.0935 97.4375C94.2033 98.0851 93.5261 98.9831 93.148 100.017C92.8238 100.894 92.7244 101.838 92.859 102.763C92.9937 103.688 93.358 104.565 93.9188 105.313L94.1301 105.568C94.3586 104.824 94.799 104.163 95.3974 103.667C95.9958 103.17 96.7262 102.858 97.499 102.771C97.0164 102.56 96.6065 102.212 96.3203 101.769C96.034 101.327 95.8841 100.811 95.8891 100.284C95.8648 99.938 95.912 99.5904 96.0278 99.2631C96.1436 98.9358 96.3256 98.6359 96.5623 98.382C96.799 98.1281 97.0854 97.9256 97.4038 97.7871C97.7221 97.6487 98.0656 97.5772 98.4127 97.5772C98.7599 97.5772 99.1033 97.6487 99.4216 97.7871C99.74 97.9256 100.026 98.1281 100.263 98.382C100.5 98.6359 100.682 98.9358 100.798 99.2631C100.913 99.5904 100.961 99.938 100.936 100.284C100.94 100.81 100.791 101.325 100.506 101.767C100.221 102.209 99.8131 102.557 99.3326 102.771C100.095 102.861 100.815 103.173 101.403 103.668C101.99 104.163 102.42 104.819 102.639 105.555L102.845 105.313C103.405 104.565 103.77 103.688 103.904 102.763C104.039 101.838 103.94 100.894 103.615 100.017C103.434 99.5124 103.176 99.0387 102.851 98.6122Z" fill="#FAFAFA"/>
<path d="M103.926 99.9051C103.744 99.364 103.475 98.8559 103.13 98.4009C102.784 97.9236 102.365 97.504 101.887 97.1578C100.875 96.4069 99.6482 96.0015 98.3878 96.0015C97.1275 96.0015 95.9006 96.4069 94.8884 97.1578C93.9499 97.8551 93.2367 98.8125 92.8372 99.9113C92.4825 100.908 92.4009 101.981 92.601 103.019C92.772 103.925 93.1555 104.777 93.7199 105.505C94.5314 106.552 95.6799 107.285 96.9707 107.581C97.314 107.668 97.6669 107.712 98.0211 107.712C98.1428 107.728 98.2661 107.728 98.3878 107.712C98.3878 107.712 98.2387 107.712 97.9652 107.65H98.7794C98.6472 107.653 98.5157 107.672 98.3878 107.706C98.5095 107.722 98.6329 107.722 98.7546 107.706C99.1088 107.706 99.4616 107.662 99.805 107.575C101.094 107.279 102.24 106.545 103.05 105.499C103.617 104.772 104.003 103.919 104.175 103.013C104.374 101.974 104.288 100.9 103.926 99.9051ZM103.87 102.951C103.717 103.807 103.365 104.616 102.844 105.313L102.639 105.555C102.42 104.819 101.99 104.163 101.403 103.668C100.815 103.173 100.095 102.861 99.3326 102.771C99.8131 102.557 100.221 102.209 100.506 101.767C100.791 101.325 100.94 100.81 100.936 100.284C100.961 99.938 100.913 99.5904 100.798 99.2631C100.682 98.9358 100.5 98.6359 100.263 98.382C100.026 98.1281 99.74 97.9256 99.4216 97.7871C99.1033 97.6487 98.7599 97.5772 98.4127 97.5772C98.0656 97.5772 97.7221 97.6487 97.4038 97.7871C97.0854 97.9256 96.799 98.1281 96.5623 98.382C96.3256 98.6359 96.1436 98.9358 96.0278 99.2631C95.912 99.5904 95.8648 99.938 95.8891 100.284C95.8841 100.811 96.034 101.327 96.3203 101.769C96.6065 102.212 97.0164 102.56 97.499 102.771C96.7262 102.858 95.9958 103.17 95.3974 103.667C94.799 104.163 94.3586 104.824 94.1301 105.568L93.9188 105.313C93.358 104.565 92.9937 103.688 92.859 102.763C92.7244 101.838 92.8238 100.894 93.148 100.017C93.526 98.9831 94.2033 98.0851 95.0935 97.4375C96.0458 96.7348 97.1982 96.3557 98.3816 96.3557C99.5651 96.3557 100.717 96.7348 101.67 97.4375C102.126 97.7609 102.525 98.1579 102.851 98.6122C103.176 99.0387 103.434 99.5124 103.615 100.017C103.961 100.955 104.049 101.968 103.87 102.951Z" fill="#455A64"/>
<path d="M165.536 112.834C165.536 112.834 165.716 112.834 166.052 112.765C166.55 112.662 167.009 112.421 167.376 112.069C167.671 111.783 167.899 111.436 168.043 111.051C168.188 110.666 168.244 110.253 168.209 109.844C168.209 108.862 168.209 107.724 168.209 106.444C168.209 103.889 168.209 100.757 168.178 97.1205C168.178 96.213 168.178 95.2558 168.178 94.3047C168.203 93.8215 168.095 93.3406 167.866 92.9143C167.637 92.488 167.295 92.1327 166.879 91.8868C166.021 91.3461 164.902 91.5823 163.827 91.5325H160.483L89.0022 91.5885C88.5945 91.5886 88.1927 91.6862 87.8304 91.8733C87.4682 92.0604 87.156 92.3314 86.9199 92.6638C86.6828 92.9923 86.5311 93.3747 86.4786 93.7764C86.447 94.19 86.4366 94.6049 86.4475 95.0196V110.211C86.4664 110.594 86.5711 110.969 86.754 111.307C86.9369 111.644 87.1932 111.937 87.5042 112.162C87.8118 112.387 88.1669 112.538 88.5422 112.604C88.9343 112.647 89.329 112.661 89.7232 112.647H103.808L135.937 112.685L157.592 112.747H163.485H165.014C165.362 112.747 165.536 112.747 165.536 112.747C165.536 112.747 165.362 112.747 165.014 112.747H163.485L157.592 112.778L135.937 112.84L103.808 112.877H89.7232C89.3083 112.893 88.8928 112.879 88.48 112.834C87.8494 112.721 87.2739 112.402 86.8432 111.927C86.4126 111.453 86.1511 110.849 86.0994 110.211C86.0994 106.916 86.0994 103.568 86.0994 100.166V95.032C86.0994 94.5969 86.0994 94.1867 86.0994 93.7143C86.1622 93.2552 86.3349 92.8181 86.6029 92.44C86.8721 92.0583 87.2285 91.7463 87.6426 91.5301C88.0567 91.3138 88.5164 91.1996 88.9835 91.1969L160.464 91.2466H165.437C165.833 91.2312 166.229 91.299 166.598 91.4454C166.967 91.5919 167.301 91.814 167.579 92.0973C167.857 92.3806 168.073 92.7189 168.212 93.0905C168.352 93.4621 168.412 93.8587 168.389 94.255C168.389 95.2247 168.389 96.1632 168.389 97.0707C168.389 100.701 168.389 103.833 168.358 106.394C168.358 107.675 168.358 108.812 168.358 109.794C168.387 110.216 168.321 110.639 168.166 111.032C168.012 111.426 167.771 111.78 167.463 112.069C167.082 112.423 166.607 112.66 166.095 112.753C165.914 112.807 165.725 112.834 165.536 112.834Z" fill="#455A64"/>
<path d="M129.647 96.9837H109.458V98.5003H129.647V96.9837Z" fill="#455A64"/>
<path d="M144.825 105.543H109.458V107.059H144.825V105.543Z" fill="#455A64"/>
<path d="M160.713 101.161H109.458V102.677H160.713V101.161Z" fill="#455A64"/>
<path d="M86.4634 66.3963L86.4173 82.9238C86.4135 84.2728 87.5041 85.3696 88.8532 85.3733L165.965 85.5887C167.314 85.5924 168.411 84.5018 168.414 83.1527L168.461 66.6252C168.464 65.2761 167.374 64.1794 166.025 64.1757L88.913 63.9603C87.5639 63.9566 86.4672 65.0472 86.4634 66.3963Z" fill="#8EC5FC"/>
<path d="M129.851 69.6402L109.663 69.5839L109.658 71.1005L129.847 71.1569L129.851 69.6402Z" fill="#FAFAFA"/>
<path d="M145.006 78.2354L109.639 78.1366L109.634 79.6532L145.002 79.752L145.006 78.2354Z" fill="#FAFAFA"/>
<path d="M160.905 73.9039L109.651 73.7608L109.647 75.2774L160.901 75.4205L160.905 73.9039Z" fill="#FAFAFA"/>
<path d="M99.5315 75.3282C100.008 75.1045 100.409 74.7466 100.685 74.2983C100.961 73.85 101.1 73.3309 101.085 72.8046C101.104 72.4584 101.05 72.112 100.929 71.7872C100.808 71.4624 100.621 71.166 100.38 70.9164C100.139 70.6668 99.8499 70.4693 99.5297 70.3363C99.2095 70.2033 98.8653 70.1375 98.5186 70.143C98.1719 70.1486 97.8301 70.2253 97.5143 70.3686C97.1985 70.5118 96.9155 70.7184 96.6829 70.9756C96.4503 71.2327 96.2731 71.535 96.1622 71.8635C96.0513 72.1921 96.0091 72.5399 96.0383 72.8854C96.0374 73.4177 96.1947 73.9382 96.4902 74.3809C96.7856 74.8235 97.206 75.1684 97.6979 75.3717C96.9032 75.4837 96.1597 75.8296 95.562 76.3653C94.9643 76.901 94.5395 77.6023 94.3414 78.3801C95.2693 79.3868 96.5253 80.0302 97.8844 80.1951H99.4383C100.813 79.9867 102.064 79.2839 102.956 78.2185C102.742 77.4484 102.301 76.7608 101.69 76.2452C101.079 75.7296 100.327 75.4101 99.5315 75.3282Z" fill="#FAFAFA"/>
<path d="M98.6862 80.2324C98.6862 80.1889 99.1959 80.2324 100.066 79.9589C100.822 79.746 101.525 79.3776 102.13 78.8773C102.735 78.3771 103.228 77.756 103.579 77.0538C103.931 76.3517 104.131 75.5839 104.168 74.7998C104.206 74.0156 104.079 73.2323 103.796 72.5001C103.606 71.9979 103.34 71.5281 103.006 71.1078C102.665 70.6612 102.256 70.2711 101.794 69.9516C100.821 69.2721 99.6568 68.9197 98.4702 68.9454C97.2835 68.9711 96.1358 69.3736 95.193 70.0946C94.7446 70.433 94.3523 70.8399 94.0306 71.3004C93.7148 71.7346 93.4675 72.2147 93.2972 72.7238C93.0456 73.4679 92.9513 74.2561 93.0204 75.0385C93.0895 75.8209 93.3204 76.5804 93.6985 77.2689C94.0766 77.9573 94.5937 78.5597 95.2169 79.0377C95.8401 79.5158 96.5558 79.8591 97.3187 80.0459C98.2014 80.2573 98.7173 80.2138 98.7111 80.2573C98.2371 80.3053 97.7584 80.2759 97.2939 80.1702C96.0013 79.8992 94.8419 79.19 94.012 78.1626C93.4368 77.4532 93.0365 76.6186 92.8434 75.726C92.6215 74.6932 92.6816 73.6197 93.0175 72.6182C93.3906 71.5137 94.0801 70.5432 95.0003 69.8273C95.9934 69.0586 97.2071 68.6292 98.4627 68.6024C99.7183 68.5755 100.949 68.9526 101.974 69.6781C102.463 70.0214 102.893 70.4411 103.249 70.9213C103.6 71.3682 103.879 71.8674 104.075 72.4006C104.457 73.3898 104.562 74.4641 104.38 75.5085C104.191 76.6074 103.69 77.6286 102.936 78.4499C102.182 79.2712 101.207 79.8577 100.128 80.1392C99.6563 80.2516 99.1687 80.2831 98.6862 80.2324Z" fill="#FAFAFA"/>
<path d="M122.405 180.858C122.355 181.201 122.183 181.513 121.921 181.739C121.659 181.965 121.325 182.089 120.979 182.089C120.633 182.089 120.299 181.965 120.037 181.739C119.775 181.513 119.603 181.201 119.552 180.858C119.603 180.516 119.775 180.204 120.037 179.978C120.299 179.752 120.633 179.627 120.979 179.627C121.325 179.627 121.659 179.752 121.921 179.978C122.183 180.204 122.355 180.516 122.405 180.858Z" fill="#455A64"/>
<path d="M126.831 180.877C126.871 181.168 126.822 181.465 126.689 181.727C126.557 181.989 126.347 182.205 126.088 182.344C125.83 182.484 125.535 182.542 125.243 182.509C124.951 182.476 124.675 182.355 124.454 182.162C124.233 181.969 124.076 181.712 124.004 181.427C123.932 181.142 123.95 180.842 124.053 180.567C124.157 180.292 124.342 180.055 124.584 179.889C124.826 179.722 125.114 179.633 125.407 179.634C125.761 179.61 126.11 179.728 126.377 179.961C126.644 180.194 126.807 180.523 126.831 180.877Z" fill="#455A64"/>
<path d="M131.25 180.896C131.291 181.187 131.241 181.484 131.108 181.746C130.975 182.009 130.765 182.224 130.506 182.364C130.247 182.503 129.952 182.561 129.66 182.527C129.367 182.494 129.092 182.373 128.871 182.179C128.65 181.985 128.493 181.728 128.422 181.442C128.352 181.157 128.37 180.856 128.474 180.581C128.579 180.306 128.765 180.07 129.008 179.904C129.251 179.738 129.539 179.65 129.833 179.653C130.186 179.63 130.533 179.749 130.798 179.982C131.064 180.215 131.226 180.543 131.25 180.896Z" fill="#455A64"/>
<path d="M97.959 135.372C98.2325 135.409 98.3817 135.409 98.3817 135.434C98.3817 135.459 98.5184 135.434 98.7732 135.378L97.959 135.372Z" fill="#455A64"/>
<path d="M102.851 126.372C102.523 125.921 102.124 125.526 101.67 125.203C100.717 124.5 99.5651 124.121 98.3816 124.121C97.1982 124.121 96.0458 124.5 95.0935 125.203C94.6373 125.526 94.2363 125.92 93.9063 126.372C93.5808 126.799 93.3248 127.275 93.148 127.782C92.8238 128.659 92.7244 129.603 92.859 130.529C92.9937 131.454 93.358 132.33 93.9188 133.078C93.9871 133.165 94.0617 133.246 94.1301 133.327C94.3603 132.585 94.8014 131.926 95.3996 131.431C95.9978 130.935 96.7272 130.624 97.499 130.536C97.0115 130.323 96.5982 129.97 96.3116 129.522C96.0249 129.074 95.8779 128.551 95.8891 128.019C95.8648 127.672 95.912 127.325 96.0278 126.998C96.1436 126.67 96.3256 126.37 96.5623 126.116C96.799 125.862 97.0854 125.66 97.4038 125.522C97.7221 125.383 98.0656 125.312 98.4127 125.312C98.7599 125.312 99.1033 125.383 99.4216 125.522C99.74 125.66 100.026 125.862 100.263 126.116C100.5 126.37 100.682 126.67 100.798 126.998C100.913 127.325 100.961 127.672 100.936 128.019C100.94 128.544 100.791 129.06 100.506 129.501C100.221 129.943 99.8131 130.292 99.3326 130.505C100.095 130.596 100.815 130.908 101.403 131.402C101.99 131.897 102.42 132.553 102.639 133.29L102.845 133.047C103.403 132.298 103.765 131.421 103.9 130.497C104.035 129.572 103.937 128.629 103.615 127.751C103.431 127.256 103.173 126.791 102.851 126.372Z" fill="#FAFAFA"/>
<path d="M103.926 127.683C103.742 127.143 103.474 126.635 103.13 126.179C102.783 125.702 102.364 125.283 101.887 124.936C100.875 124.185 99.6482 123.78 98.3878 123.78C97.1275 123.78 95.9006 124.185 94.8884 124.936C93.9465 125.63 93.2324 126.588 92.8372 127.689C92.4825 128.686 92.4009 129.759 92.601 130.797C92.7734 131.702 93.1567 132.554 93.7199 133.283C94.5314 134.33 95.6799 135.063 96.9707 135.359C97.3152 135.44 97.6673 135.484 98.0211 135.49C98.1428 135.506 98.2661 135.506 98.3878 135.49C98.3878 135.49 98.2387 135.49 97.9652 135.428H98.7794C98.5246 135.459 98.3878 135.459 98.3878 135.484C98.5095 135.5 98.6329 135.5 98.7546 135.484C99.1084 135.478 99.4605 135.434 99.805 135.353C101.094 135.057 102.24 134.323 103.05 133.277C103.617 132.55 104.003 131.697 104.175 130.791C104.374 129.752 104.288 128.678 103.926 127.683ZM103.87 130.723C103.719 131.582 103.367 132.393 102.844 133.091L102.639 133.333C102.42 132.597 101.99 131.941 101.403 131.446C100.815 130.951 100.095 130.639 99.3326 130.549C99.8131 130.335 100.221 129.987 100.506 129.545C100.791 129.103 100.94 128.588 100.936 128.062C100.961 127.716 100.913 127.368 100.798 127.041C100.682 126.714 100.5 126.414 100.263 126.16C100.026 125.906 99.74 125.704 99.4216 125.565C99.1033 125.427 98.7599 125.355 98.4127 125.355C98.0656 125.355 97.7221 125.427 97.4038 125.565C97.0854 125.704 96.799 125.906 96.5623 126.16C96.3256 126.414 96.1436 126.714 96.0278 127.041C95.912 127.368 95.8648 127.716 95.8891 128.062C95.8779 128.594 96.0249 129.117 96.3116 129.566C96.5982 130.014 97.0115 130.367 97.499 130.58C96.7272 130.668 95.9978 130.979 95.3996 131.474C94.8014 131.97 94.3603 132.629 94.1301 133.37C94.0617 133.29 93.9871 133.209 93.9188 133.122C93.358 132.374 92.9937 131.497 92.859 130.572C92.7244 129.647 92.8238 128.703 93.148 127.826C93.3248 127.319 93.5808 126.843 93.9063 126.415C94.2363 125.964 94.6372 125.569 95.0935 125.247C96.0458 124.544 97.1982 124.165 98.3816 124.165C99.5651 124.165 100.717 124.544 101.67 125.247C102.124 125.569 102.523 125.964 102.851 126.415C103.176 126.844 103.434 127.32 103.615 127.826C103.954 128.752 104.042 129.751 103.87 130.723Z" fill="#455A64"/>
<path d="M165.536 140.612C165.536 140.612 165.716 140.612 166.052 140.543C166.55 140.44 167.009 140.199 167.376 139.847C167.671 139.561 167.899 139.213 168.043 138.829C168.188 138.444 168.244 138.031 168.209 137.622C168.209 136.634 168.209 135.502 168.209 134.222C168.209 131.661 168.209 128.535 168.178 124.898C168.178 123.991 168.178 123.034 168.178 122.083C168.203 121.599 168.095 121.119 167.866 120.692C167.637 120.266 167.295 119.911 166.879 119.665C166.021 119.124 164.902 119.36 163.827 119.311H160.483L89.0022 119.366C88.5942 119.365 88.1919 119.462 87.8294 119.649C87.4669 119.836 87.1549 120.108 86.9199 120.442C86.6819 120.77 86.5301 121.152 86.4786 121.554C86.447 121.968 86.4366 122.383 86.4475 122.798V137.995C86.4655 138.38 86.5698 138.755 86.7527 139.094C86.9356 139.433 87.1924 139.727 87.5042 139.953C87.8118 140.178 88.1669 140.329 88.5422 140.394C88.9345 140.434 89.329 140.449 89.7232 140.438H103.808L135.937 140.475L157.592 140.537L163.485 140.568H165.014C165.362 140.568 165.536 140.568 165.536 140.568H165.014H163.485H157.592L135.937 140.624L103.808 140.668H89.7232C89.3081 140.685 88.8924 140.668 88.48 140.618C88.0506 140.548 87.6437 140.378 87.2928 140.121C86.937 139.865 86.6441 139.532 86.4362 139.147C86.2284 138.761 86.1111 138.333 86.0932 137.895C86.0932 134.58 86.0932 131.232 86.0932 127.851V122.717C86.0932 122.282 86.0932 121.871 86.0932 121.399C86.156 120.94 86.3287 120.503 86.5967 120.125C86.8673 119.744 87.2241 119.434 87.6378 119.218C88.0516 119.001 88.5105 118.886 88.9773 118.882L160.458 118.938H165.43C165.975 118.923 166.513 119.061 166.984 119.335C167.434 119.603 167.801 119.988 168.048 120.449C168.294 120.91 168.41 121.43 168.383 121.952C168.383 122.922 168.383 123.86 168.383 124.768C168.383 128.398 168.383 131.524 168.352 134.091C168.352 135.372 168.352 136.503 168.352 137.491C168.38 137.913 168.315 138.336 168.16 138.73C168.005 139.123 167.765 139.477 167.457 139.766C167.075 140.12 166.601 140.357 166.089 140.45C165.914 140.531 165.727 140.586 165.536 140.612Z" fill="#455A64"/>
<path d="M129.647 124.762H109.458V126.278H129.647V124.762Z" fill="#455A64"/>
<path d="M144.825 133.321H109.458V134.837H144.825V133.321Z" fill="#455A64"/>
<path d="M160.713 128.939H109.458V130.455H160.713V128.939Z" fill="#455A64"/>
<path d="M97.959 162.597C98.2325 162.628 98.3817 162.634 98.3817 162.659C98.3817 162.684 98.5184 162.628 98.7732 162.603L97.959 162.597Z" fill="#455A64"/>
<path d="M102.851 153.609C102.521 153.157 102.123 152.761 101.67 152.434C100.714 151.74 99.563 151.366 98.3816 151.366C97.2003 151.366 96.0493 151.74 95.0935 152.434C94.6385 152.761 94.2378 153.157 93.9063 153.609C93.5808 154.036 93.3248 154.512 93.148 155.02C92.8238 155.897 92.7244 156.841 92.859 157.766C92.9937 158.691 93.358 159.567 93.9188 160.316C93.9871 160.403 94.0617 160.483 94.1301 160.564C94.3603 159.822 94.8014 159.163 95.3996 158.668C95.9978 158.172 96.7272 157.861 97.499 157.773C97.0169 157.562 96.6074 157.213 96.3213 156.772C96.0351 156.33 95.8849 155.813 95.8891 155.287C95.8648 154.941 95.912 154.593 96.0278 154.266C96.1436 153.939 96.3256 153.639 96.5623 153.385C96.799 153.131 97.0854 152.928 97.4038 152.79C97.7221 152.651 98.0656 152.58 98.4127 152.58C98.7599 152.58 99.1033 152.651 99.4216 152.79C99.74 152.928 100.026 153.131 100.263 153.385C100.5 153.639 100.682 153.939 100.798 154.266C100.913 154.593 100.961 154.941 100.936 155.287C100.94 155.813 100.791 156.328 100.506 156.77C100.221 157.211 99.8131 157.56 99.3326 157.773C100.096 157.863 100.816 158.175 101.404 158.67C101.991 159.165 102.421 159.821 102.639 160.558C102.708 160.477 102.776 160.403 102.845 160.309C103.369 159.614 103.72 158.805 103.87 157.947C104.048 156.966 103.96 155.955 103.615 155.02C103.434 154.513 103.176 154.037 102.851 153.609Z" fill="#FAFAFA"/>
<path d="M103.926 154.902C103.742 154.363 103.473 153.858 103.13 153.404C102.784 152.926 102.365 152.507 101.887 152.16C100.873 151.413 99.6472 151.01 98.3878 151.01C97.1285 151.01 95.9022 151.413 94.8884 152.16C94.4093 152.505 93.9895 152.925 93.6453 153.404C93.3027 153.859 93.0322 154.364 92.8434 154.902C92.4896 155.898 92.408 156.971 92.6072 158.009C92.7773 158.915 93.1608 159.768 93.7261 160.496C94.5355 161.546 95.6847 162.282 96.9769 162.578C97.3214 162.659 97.6735 162.703 98.0273 162.709C98.149 162.725 98.2724 162.725 98.3941 162.709C98.3941 162.709 98.2449 162.677 97.9714 162.646H98.7856C98.5308 162.646 98.3941 162.646 98.3941 162.702C98.5158 162.719 98.6391 162.719 98.7608 162.702C99.1146 162.696 99.4667 162.653 99.8112 162.572C100.895 162.31 101.882 161.743 102.653 160.938C103.424 160.132 103.948 159.123 104.162 158.028C104.368 156.984 104.286 155.903 103.926 154.902ZM103.87 157.947C103.72 158.805 103.369 159.614 102.844 160.309C102.776 160.402 102.708 160.477 102.639 160.558C102.421 159.821 101.991 159.165 101.403 158.67C100.816 158.175 100.096 157.863 99.3326 157.773C99.8131 157.56 100.221 157.211 100.506 156.77C100.791 156.328 100.94 155.813 100.936 155.287C100.961 154.941 100.913 154.593 100.798 154.266C100.682 153.939 100.5 153.639 100.263 153.385C100.026 153.131 99.74 152.928 99.4216 152.79C99.1033 152.651 98.7599 152.58 98.4127 152.58C98.0656 152.58 97.7221 152.651 97.4038 152.79C97.0854 152.928 96.799 153.131 96.5623 153.385C96.3256 153.639 96.1436 153.939 96.0278 154.266C95.912 154.593 95.8648 154.941 95.8891 155.287C95.8849 155.813 96.0351 156.33 96.3213 156.771C96.6074 157.213 97.0169 157.562 97.499 157.773C96.7258 157.859 95.9941 158.167 95.3936 158.662C94.7931 159.157 94.3497 159.815 94.1177 160.558C94.0493 160.477 93.9747 160.396 93.9063 160.309C93.3456 159.561 92.9812 158.685 92.8466 157.76C92.712 156.834 92.8113 155.89 93.1356 155.013C93.3124 154.506 93.5683 154.03 93.8939 153.603C94.2254 153.151 94.626 152.754 95.0811 152.428C96.0368 151.733 97.1878 151.359 98.3692 151.359C99.5505 151.359 100.702 151.733 101.657 152.428C102.545 153.081 103.221 153.98 103.603 155.013C103.952 155.95 104.045 156.963 103.87 157.947Z" fill="#455A64"/>
<path d="M165.536 167.837C165.536 167.837 165.716 167.837 166.052 167.768C166.706 167.628 167.286 167.254 167.684 166.716C168.081 166.178 168.268 165.513 168.209 164.847C168.209 163.858 168.209 162.727 168.209 161.447C168.209 158.886 168.209 155.759 168.178 152.123C168.178 151.216 168.178 150.259 168.178 149.308C168.201 148.819 168.088 148.334 167.852 147.906C167.617 147.478 167.267 147.124 166.841 146.883C165.984 146.343 164.865 146.579 163.789 146.529H160.445L88.9649 146.579C88.5567 146.58 88.1548 146.679 87.7926 146.867C87.4304 147.055 87.1184 147.327 86.8826 147.66C86.6446 147.988 86.4928 148.371 86.4413 148.773C86.4096 149.187 86.3992 149.601 86.4102 150.016V165.22C86.4282 165.604 86.5326 165.978 86.7155 166.316C86.8985 166.654 87.1553 166.947 87.4669 167.171C87.7739 167.398 88.1291 167.551 88.5049 167.619C88.8971 167.66 89.2918 167.672 89.6859 167.656H103.771L135.9 167.694L157.555 167.749L163.448 167.787H164.977H165.499C165.499 167.787 165.325 167.787 164.977 167.787H163.448L157.555 167.824L135.9 167.88L103.771 167.917H89.7232C89.3081 167.931 88.8926 167.915 88.48 167.868C88.0502 167.796 87.6434 167.623 87.2928 167.364C86.9372 167.11 86.6442 166.778 86.4363 166.393C86.2284 166.009 86.1111 165.582 86.0932 165.145C86.0932 161.851 86.0932 158.503 86.0932 155.101V149.966C86.0932 149.531 86.0932 149.121 86.0932 148.649C86.156 148.19 86.3287 147.752 86.5967 147.374C86.8662 146.993 87.2228 146.681 87.6367 146.465C88.0507 146.249 88.5103 146.135 88.9773 146.131L160.458 146.187H165.43C165.975 146.173 166.513 146.31 166.984 146.585C167.434 146.852 167.802 147.237 168.049 147.698C168.295 148.16 168.411 148.68 168.383 149.202C168.383 150.171 168.383 151.11 168.383 152.018C168.383 155.648 168.383 158.774 168.352 161.341C168.352 162.622 168.352 163.753 168.352 164.741C168.38 165.163 168.314 165.586 168.16 165.979C168.005 166.372 167.765 166.727 167.457 167.016C167.077 167.371 166.601 167.606 166.089 167.694C165.913 167.769 165.727 167.818 165.536 167.837Z" fill="#455A64"/>
<path d="M129.647 151.986H109.458V153.503H129.647V151.986Z" fill="#455A64"/>
<path d="M144.825 160.539H109.458V162.056H144.825V160.539Z" fill="#455A64"/>
<path d="M160.713 156.157H109.458V157.674H160.713V156.157Z" fill="#455A64"/>
<path d="M165.778 69.8709C168.065 69.8709 169.918 68.0175 169.918 65.7312C169.918 63.4449 168.065 61.5916 165.778 61.5916C163.492 61.5916 161.639 63.4449 161.639 65.7312C161.639 68.0175 163.492 69.8709 165.778 69.8709Z" fill="#263238"/>
<path d="M163.746 65.3955L165.486 66.9246L167.805 64.5378" stroke="#FAFAFA" stroke-linecap="round" stroke-linejoin="round"/>
<path d="M51.0553 250.045L50.0421 255.932L59.117 256.597L59.1481 250.81L51.0553 250.045Z" fill="#FF725E"/>
<path d="M55.1452 250.126C55.1206 251.924 54.9123 253.716 54.5236 255.472C54.4887 254.571 54.5429 253.67 54.6852 252.78C54.7499 251.882 54.904 250.993 55.1452 250.126Z" fill="#263238"/>
<path d="M59.1171 255.956C58.6778 255.963 58.2388 255.93 57.8056 255.857L54.6542 255.509C53.4111 255.366 52.3047 255.217 51.5028 255.08C51.0652 255.03 50.634 254.934 50.2162 254.794C50.6554 254.779 51.0951 254.81 51.5277 254.887L54.6853 255.242C55.9284 255.378 57.0286 255.534 57.8304 255.671C58.2681 255.721 58.6993 255.817 59.1171 255.956Z" fill="#263238"/>
<path d="M83.812 253.259V247.975L73.9291 247.882L73.8234 255.608L74.445 255.652C77.1737 255.826 88.3246 256.36 90.1521 255.826C92.197 255.229 83.812 253.259 83.812 253.259Z" fill="#FF725E"/>
<g opacity="0.38">
<path opacity="0.38" d="M77.4223 255.565C77.2832 254.729 76.8405 253.975 76.1791 253.445C75.5305 252.918 74.7079 252.652 73.8731 252.699V255.465L77.4223 255.565Z" fill="black"/>
</g>
<g opacity="0.38">
<path opacity="0.38" d="M87.9019 254.365C87.9019 254.365 90.8357 255.242 90.4628 255.726C90.0899 256.211 78.8022 256.093 73.8296 255.608V255.385L86.9944 255.627C86.9944 255.627 87.3301 254.415 87.9019 254.365Z" fill="black"/>
</g>
<path d="M73.6991 255.378H73.8669L74.3517 255.416L76.1481 255.509C77.6709 255.577 79.7656 255.646 82.0841 255.67C84.4025 255.695 86.4972 255.671 88.0201 255.639L89.8164 255.583H90.3074C90.3631 255.592 90.4196 255.592 90.4753 255.583H89.8164H88.0201C86.4972 255.583 84.4025 255.583 82.0841 255.583C79.7656 255.583 77.6709 255.503 76.1543 255.453L74.358 255.397H73.8669L73.6991 255.378Z" fill="#263238"/>
<path d="M87.0131 255.782C87.0958 255.486 87.2126 255.2 87.3612 254.931C87.5441 254.682 87.7524 254.453 87.9828 254.247C87.6752 254.36 87.419 254.581 87.2617 254.869C87.0701 255.133 86.9817 255.458 87.0131 255.782Z" fill="#263238"/>
<path d="M84.1104 254.272C84.1104 254.272 84.2782 254.123 84.4274 253.899C84.5336 253.771 84.6082 253.62 84.6449 253.458C84.6449 253.458 84.4709 253.607 84.3279 253.831C84.185 254.054 84.0855 254.253 84.1104 254.272Z" fill="#263238"/>
<path d="M83.3147 253.843C83.3147 253.843 83.495 253.762 83.669 253.613C83.8431 253.464 83.9612 253.321 83.9363 253.296C83.9114 253.271 83.7623 253.371 83.5882 253.526C83.4142 253.681 83.2961 253.793 83.3147 253.843Z" fill="#263238"/>
<path d="M82.8175 252.905C83.1574 252.979 83.5094 252.979 83.8493 252.905C83.8493 252.867 83.6193 252.836 83.3396 252.83C83.1623 252.817 82.9842 252.843 82.8175 252.905Z" fill="#263238"/>
<path d="M82.6497 252.246C82.8213 252.359 83.0222 252.419 83.2277 252.42C83.4376 252.461 83.655 252.435 83.8493 252.345C83.6568 252.309 83.4608 252.294 83.265 252.302C83.0624 252.262 82.8562 252.243 82.6497 252.246Z" fill="#263238"/>
<path d="M84.4584 253.414C84.6643 253.447 84.8741 253.447 85.08 253.414C85.3093 253.385 85.5359 253.337 85.7575 253.271C85.8916 253.235 86.0209 253.182 86.1429 253.116C86.1817 253.095 86.2161 253.067 86.2438 253.033C86.2716 252.999 86.2922 252.959 86.3045 252.917C86.3138 252.87 86.31 252.821 86.2936 252.776C86.2771 252.731 86.2487 252.692 86.2113 252.662C85.9705 252.539 85.694 252.504 85.4302 252.564C85.1665 252.624 84.9324 252.776 84.7692 252.992C84.6671 253.112 84.5947 253.255 84.5579 253.408C84.5579 253.52 84.5579 253.582 84.5579 253.582C84.621 253.385 84.7201 253.202 84.85 253.041C84.9954 252.875 85.1852 252.755 85.397 252.693C85.6482 252.614 85.9204 252.636 86.1553 252.755C86.2548 252.83 86.2113 252.948 86.0994 253.016C85.9853 253.075 85.8669 253.125 85.7451 253.166C85.5302 253.237 85.3098 253.291 85.0862 253.327C84.7008 253.396 84.4584 253.396 84.4584 253.414Z" fill="#263238"/>
<path d="M84.6201 253.445C84.6201 253.445 84.7257 253.296 84.7009 253.01C84.6799 252.843 84.6203 252.684 84.5268 252.544C84.476 252.448 84.4011 252.368 84.3096 252.31C84.218 252.252 84.1129 252.219 84.0047 252.215C83.9724 252.221 83.9416 252.233 83.914 252.251C83.8865 252.269 83.8628 252.292 83.8443 252.319C83.8258 252.346 83.8129 252.377 83.8063 252.409C83.7997 252.441 83.7995 252.474 83.8058 252.507C83.8191 252.607 83.8553 252.702 83.9115 252.786C83.9936 252.928 84.0916 253.059 84.2036 253.178C84.3024 253.291 84.4257 253.381 84.5641 253.439C84.5641 253.439 84.4398 253.321 84.2658 253.122C84.1694 253 84.0822 252.871 84.0047 252.737C83.9177 252.6 83.8618 252.358 84.0047 252.333C84.1477 252.308 84.3217 252.476 84.4212 252.606C84.5092 252.73 84.5686 252.873 84.5952 253.023C84.6168 253.162 84.6251 253.304 84.6201 253.445Z" fill="#263238"/>
<path d="M73.9291 252.675C73.9291 252.675 74.2088 252.675 74.6563 252.706C75.237 252.781 75.7855 253.015 76.2413 253.383C76.6943 253.755 77.0344 254.246 77.2234 254.8C77.2957 255.031 77.3558 255.266 77.4037 255.503C77.4143 255.437 77.4143 255.37 77.4037 255.304C77.3864 255.122 77.351 254.943 77.298 254.769C77.1228 254.189 76.7787 253.674 76.3097 253.29C75.8386 252.906 75.2621 252.674 74.6563 252.625C74.4766 252.605 74.2953 252.605 74.1156 252.625C74.0509 252.63 73.9877 252.647 73.9291 252.675Z" fill="#263238"/>
<path d="M74.992 248.572C74.918 249.245 74.8827 249.922 74.8863 250.598C74.8484 251.275 74.8484 251.954 74.8863 252.631C74.9603 251.958 74.9956 251.282 74.992 250.605C75.0299 249.928 75.0299 249.249 74.992 248.572Z" fill="#263238"/>
<path d="M78.6716 254.614C79.1435 254.728 79.6283 254.78 80.1137 254.769C80.5987 254.8 81.0856 254.766 81.5619 254.67C81.5619 254.632 80.9404 254.67 80.1199 254.67C79.2994 254.67 78.6778 254.576 78.6716 254.614Z" fill="#263238"/>
<path d="M76.7137 254.589C76.7137 254.589 76.7634 254.726 76.8256 254.875C76.8877 255.024 76.925 255.155 76.9623 255.155C76.9996 255.155 77.012 254.999 76.9623 254.825C76.9126 254.651 76.7572 254.564 76.7137 254.589Z" fill="#263238"/>
<path d="M76.0175 253.675C76.0175 253.675 76.0548 253.8 76.1543 253.905C76.2537 254.011 76.3594 254.073 76.3842 254.054C76.4091 254.036 76.3407 253.924 76.2413 253.818C76.1418 253.713 76.0362 253.65 76.0175 253.675Z" fill="#263238"/>
<path d="M74.9733 253.246C74.9733 253.277 75.11 253.277 75.2592 253.333C75.4084 253.389 75.5078 253.464 75.5327 253.439C75.5576 253.414 75.4767 253.284 75.2965 253.222C75.1162 253.159 74.9671 253.215 74.9733 253.246Z" fill="#263238"/>
<path d="M74.2274 253.041C74.2274 253.041 74.2709 253.128 74.3517 253.159C74.4325 253.19 74.5071 253.159 74.5196 253.159C74.532 253.159 74.476 253.079 74.3952 253.047C74.3144 253.016 74.2274 253.01 74.2274 253.041Z" fill="#263238"/>
<path d="M68.8197 92.844C68.8943 91.2963 69.0621 89.5435 69.0621 89.5435C69.0621 89.5435 72.891 89.127 73.121 85.1925C73.351 81.2579 73.121 72.1395 73.121 72.1395L66.147 68.5655L58.4706 74.6196L59.6329 94.4042L66.694 94.8517C66.9663 94.8633 67.2383 94.8203 67.4937 94.725C67.7491 94.6297 67.9828 94.4842 68.181 94.297C68.3792 94.1098 68.5379 93.8848 68.6476 93.6352C68.7573 93.3856 68.8158 93.1166 68.8197 92.844Z" fill="#FFBE9D"/>
<path d="M69.5097 82.0411C69.5097 82.0411 69.5097 82.1095 69.4475 82.2089C69.3951 82.2728 69.3285 82.3236 69.2529 82.357C69.1773 82.3905 69.095 82.4058 69.0124 82.4016C68.5649 82.4016 68.136 81.8919 67.9806 81.289C67.9095 81.0012 67.9095 80.7004 67.9806 80.4126C67.9891 80.2815 68.0321 80.155 68.1053 80.0458C68.1784 79.9367 68.2791 79.8488 68.3971 79.791C68.4432 79.771 68.4929 79.7607 68.5431 79.7607C68.5934 79.7607 68.6431 79.771 68.6892 79.791C68.7601 79.8226 68.8158 79.8806 68.8446 79.9526C68.9005 80.0645 68.8446 80.1391 68.8446 80.1329C68.8446 80.1267 68.8446 80.0645 68.77 79.9961C68.7346 79.9445 68.681 79.9081 68.6199 79.8943C68.5588 79.8805 68.4948 79.8902 68.4406 79.9216C68.3577 79.9761 68.289 80.0497 68.2403 80.1362C68.1917 80.2227 68.1644 80.3196 68.1609 80.4188C68.1126 80.6789 68.1232 80.9465 68.192 81.202C68.3287 81.7428 68.7016 82.1779 69.0311 82.2214C69.0972 82.23 69.1643 82.2251 69.2284 82.2069C69.2925 82.1887 69.3523 82.1577 69.404 82.1157C69.4724 82.0908 69.4973 82.0349 69.5097 82.0411Z" fill="#EB996E"/>
<path d="M69.4848 84.4839C69.5346 84.341 69.5657 84.1856 69.6092 84.0364C69.6527 83.8872 69.6651 83.8251 69.7024 83.7132C69.7689 83.3878 69.8043 83.0569 69.8081 82.7249C69.4676 82.8569 69.0958 82.8861 68.7389 82.8087C68.382 82.7314 68.0557 82.5509 67.8004 82.2898C67.5433 82.0176 67.3638 81.6814 67.2808 81.3163C67.1977 80.9511 67.214 80.5704 67.328 80.2137C67.4913 79.823 67.7351 79.471 68.0436 79.1808C68.352 78.8905 68.7182 78.6686 69.1181 78.5293C69.8889 78.2061 70.7156 78.0445 71.4739 77.6839C73.0775 76.9256 74.1839 75.3406 74.9422 73.681C75.4706 72.5187 75.8684 71.1948 75.5079 69.9516C74.9733 68.1304 73.0216 67.2291 71.275 66.7257C68.5898 65.9674 65.6808 65.6317 63.0578 66.5951C60.4348 67.5586 57.2834 69.2617 57.2834 72.1582C55.7357 72.0277 54.8531 73.4013 54.2377 75.0671C53.9349 76.1105 53.7065 77.1739 53.554 78.2496" fill="#263238"/>
<path d="M59.3968 90.3205C57.4617 88.9855 55.9057 87.1718 54.8806 85.0563C53.8555 82.9407 53.3963 80.5955 53.5478 78.2496C53.9456 69.9454 69.4849 84.4653 69.4849 84.4653C69.4849 84.4653 66.5075 94.2488 59.7138 90.3018" fill="#263238"/>
<path d="M57.0907 82.0412C57.0472 82.0039 57.358 81.7117 57.6128 81.1088C57.7868 80.7258 57.8784 80.3104 57.8816 79.8897C57.8848 79.469 57.7995 79.0524 57.6313 78.6667C57.4631 78.2811 57.2157 77.9351 56.9052 77.6513C56.5947 77.3674 56.228 77.1519 55.8289 77.0189C55.2073 76.7951 54.7847 76.8262 54.7847 76.7702C55.1489 76.6581 55.5399 76.669 55.8973 76.8013C56.3406 76.9262 56.7514 77.146 57.1013 77.4454C57.4512 77.7449 57.7318 78.1168 57.9236 78.5355C58.1051 78.9599 58.1898 79.4194 58.1715 79.8807C58.1533 80.3419 58.0325 80.7933 57.8179 81.202C57.4885 81.8298 57.1093 82.066 57.0907 82.0412Z" fill="#FF725E"/>
<path d="M53.8896 76.9567C53.749 76.9746 53.6064 76.9439 53.4856 76.8697C53.1365 76.6985 52.8496 76.4225 52.6651 76.0803C52.4072 75.5678 52.3139 74.9882 52.3979 74.4207C52.4702 73.7346 52.6817 73.0705 53.0194 72.4689C53.3648 71.8526 53.9079 71.3709 54.5609 71.1015C55.1028 70.8804 55.7097 70.8804 56.2516 71.1015C56.6099 71.2511 56.9137 71.5071 57.1218 71.8349C57.2523 72.0711 57.271 72.2265 57.2523 72.2265C56.9993 71.8127 56.617 71.4938 56.1646 71.319C55.6768 71.1504 55.1431 71.1749 54.6728 71.3874C54.0922 71.6418 53.61 72.0781 53.2991 72.6305C52.6341 73.8177 52.4476 75.179 52.8516 75.9684C53.0736 76.4074 53.4402 76.7565 53.8896 76.9567Z" fill="#263238"/>
<path d="M124.469 79.7538C124.189 79.4679 123.505 79.6046 123.505 79.6046C123.571 79.2053 123.571 78.7981 123.505 78.3988C123.381 78.0072 122.505 78.0818 122.505 78.0818C122.463 77.7537 122.463 77.4216 122.505 77.0935C122.509 77.0216 122.492 76.95 122.456 76.888C122.419 76.826 122.365 76.7763 122.3 76.7454C121.885 76.5778 121.441 76.4974 120.994 76.5092C120.454 76.1238 122.623 73.0906 123.431 72.1209C124.239 71.1513 124.09 70.3992 123.375 70.3992C122.884 70.3992 120.354 73.3143 119.577 74.2902C118.8 75.2661 116.737 77.9885 116.668 75.8193C116.6 73.65 115.723 72.0028 115.176 71.7231C114.629 71.4434 114.045 72.1023 114.35 72.7052C114.609 73.3901 114.772 74.1075 114.835 74.8372C114.904 75.424 114.877 76.0183 114.754 76.5962C114.527 77.6556 114.215 78.6949 113.821 79.7041L113.765 79.673C113.765 79.673 98.6178 94.1991 97.5238 95.2122C96.5418 96.1446 76.8567 94.1058 72.9159 93.6894C71.5716 93.4981 70.2149 93.4067 68.857 93.4159C67.1477 93.4905 66.8432 93.7329 65.1276 93.7516C61.0542 93.7654 56.9885 94.1063 52.9697 94.7709C49.0352 95.436 46.8721 98.5003 45.66 102.311C41.6758 114.742 30.9102 143.956 29.3003 160.49C28.1002 162.669 27.0151 164.91 26.0495 167.202C24.9369 170.242 25.2104 170.348 25.5833 170.416C26.5903 170.602 27.7464 165.151 28.1815 166.463C28.6166 167.774 25.9936 172.971 27.0565 173.12C28.4363 173.319 29.5427 167.588 29.6733 167.109C29.8038 166.631 30.5 166.805 30.357 167.227C30.1581 167.849 28.2064 174.313 29.5614 174.525C30.3135 174.636 30.3943 173.281 30.3943 173.281C30.3943 173.281 31.7742 167.066 32.4144 167.209C33.0546 167.352 32.3771 170.994 32.0539 172.212C31.7307 173.431 32.1844 174.077 32.8308 173.754C33.2784 173.549 34.3413 169.838 34.6334 168.626C34.9255 167.414 35.6466 164.076 36.6286 166.015C37.6107 167.955 39.1149 169.073 39.7365 169.123C39.8796 169.117 40.017 169.065 40.129 168.976C40.2409 168.887 40.3217 168.764 40.3597 168.626C40.3977 168.488 40.3909 168.341 40.3403 168.207C40.2898 168.073 40.1981 167.959 40.0784 167.88C39.5524 167.367 39.1006 166.783 38.7358 166.146C38.4234 165.644 38.1965 165.094 38.0645 164.517C37.7891 163.365 37.6288 162.189 37.5859 161.005L37.4678 160.291C39.0217 152.596 44.305 126.365 50.7258 111.932L52.5906 121.032L53.7405 125.066L46.6732 142.532L76.8007 142.135L72.3068 124.83L77.7641 106.805C83.6753 106.935 98.8416 107.159 101.384 106.015C104.56 104.598 121.013 83.8624 121.013 83.8624C122.096 83.0302 123.134 82.14 124.121 81.1958C124.121 81.1958 125.072 80.3754 124.469 79.7538Z" fill="#FFBE9D"/>
<path d="M45.3617 129.691C46.2319 126.707 50.7196 111.951 50.7196 111.951C50.7196 111.951 52.9262 123.978 52.3481 125.427C51.8138 126.669 51.1798 127.867 50.4523 129.007C45.3617 136.764 46.0268 140.643 46.0268 140.643L76.8007 139.704C76.8753 135.403 74.3144 125.408 73.7923 123.798C73.2702 122.188 75.0354 116.961 75.0354 116.961C75.0354 116.961 78.5162 113.43 78.3795 111.615C78.307 109.985 78.099 108.363 77.7579 106.767L100.551 107.202L98.0024 94.8144L76.0237 93.2045L68.7141 92.5208C65.0344 95.6287 59.521 92.5208 59.521 92.5208C52.5097 93.2045 51.4841 94.3296 48.6063 97.2075C45.1876 100.614 35.9511 126.676 35.9511 126.676L45.3617 129.691Z" fill="#AE8FC5"/>
<path d="M63.5613 126.688C63.0259 126.782 62.481 126.809 61.939 126.769C60.932 126.769 59.5522 126.701 58.0293 126.552C56.5065 126.403 55.139 126.179 54.1569 125.986C53.6177 125.919 53.0892 125.783 52.5844 125.582C53.1248 125.58 53.6641 125.632 54.1942 125.737C55.1887 125.862 56.55 126.036 58.0666 126.191C59.5832 126.347 60.9507 126.446 61.9452 126.514C62.4884 126.517 63.03 126.575 63.5613 126.688Z" fill="#263238"/>
<path d="M65.6622 124.072C65.1291 124.332 64.5652 124.524 63.9839 124.644C62.6019 125.01 61.1957 125.277 59.7759 125.445C58.3572 125.616 56.928 125.684 55.4995 125.65C54.9067 125.668 54.314 125.614 53.7343 125.489C54.3188 125.406 54.9095 125.375 55.4995 125.396C56.5873 125.358 58.0852 125.284 59.7386 125.085C61.392 124.886 62.8465 124.619 63.928 124.395C64.4953 124.236 65.0757 124.128 65.6622 124.072Z" fill="#263238"/>
<path d="M76.0175 112.399C76.0107 112.927 75.9398 113.453 75.8062 113.965C75.6259 114.928 75.3462 116.246 74.9919 117.694C74.6376 119.143 74.2771 120.442 73.9912 121.38C73.8719 121.896 73.6903 122.394 73.4504 122.866C73.488 122.338 73.586 121.817 73.7426 121.312C74.0036 120.23 74.3082 118.987 74.6376 117.614C74.9671 116.24 75.2903 114.997 75.5576 113.884C75.6548 113.373 75.8091 112.875 76.0175 112.399Z" fill="#263238"/>
<path d="M45.8217 140.854L76.5894 139.916L89.978 192.202L87.4917 252.177H71.2066L73.2391 193.501L61.3361 157.077L63.1448 252.799L46.6981 253.041L45.0136 163.168C44.9453 160.626 44.1062 154.883 44.3921 152.359L45.8217 140.854Z" fill="#455A64"/>
<path d="M65.4384 157.817C64.9333 157.852 64.4256 157.823 63.928 157.73C63.0018 157.618 61.7276 157.425 60.3353 157.145C58.943 156.866 57.6874 156.524 56.7923 156.294C56.2963 156.188 55.8159 156.018 55.3627 155.79C55.3627 155.691 57.6252 156.232 60.4037 156.791C63.1821 157.351 65.4508 157.711 65.4384 157.817Z" fill="#263238"/>
<path d="M87.3612 248.889C87.3612 248.989 83.6753 249.069 79.1254 249.069C74.5755 249.069 71.3371 248.926 71.3371 248.827C71.3371 248.728 74.5755 248.709 79.1254 248.709C83.6753 248.709 87.3612 248.821 87.3612 248.889Z" fill="#263238"/>
<path d="M62.9148 249.069C62.9148 249.169 59.3346 249.25 54.9214 249.25C50.5083 249.25 46.9343 249.169 46.9343 249.069C46.9343 248.97 50.5083 248.889 54.9214 248.889C59.3346 248.889 62.9148 248.97 62.9148 249.069Z" fill="#263238"/>
<path d="M60.9072 249.069C60.8077 249.069 60.3726 228.377 59.9375 202.849C59.5024 177.322 59.2351 156.63 59.3159 156.623C59.3967 156.617 59.8691 177.34 60.3042 202.825C60.7393 228.309 61.0066 249.063 60.9072 249.069Z" fill="#263238"/>
<path d="M85.1732 248.889C85.1665 248.794 85.1665 248.698 85.1732 248.603C85.1732 248.398 85.1732 248.125 85.1732 247.77C85.1732 247.024 85.223 245.949 85.2665 244.575C85.3597 241.785 85.5027 237.775 85.6705 232.828C86.0497 222.883 86.578 209.208 87.1561 194.067C87.1561 193.924 87.1561 193.787 87.1561 193.656V193.706C83.5074 179.106 80.2131 165.903 77.8325 156.331L75.0665 145.019C74.7495 143.695 74.5009 142.663 74.3331 141.911C74.2543 141.575 74.1922 141.308 74.1466 141.109C74.1232 141.019 74.1066 140.928 74.0969 140.835C74.1362 140.921 74.1654 141.011 74.1839 141.103C74.2336 141.295 74.3082 141.556 74.4014 141.892C74.5879 142.613 74.8614 143.645 75.2033 144.963C75.8932 147.642 76.8815 151.495 78.0998 156.25C80.5177 165.816 83.8493 179.006 87.5414 193.601V193.656C87.5414 193.781 87.5414 193.924 87.5414 194.06C86.9199 209.189 86.3604 222.883 85.9502 232.815C85.7327 237.788 85.5524 241.772 85.4281 244.563C85.3597 245.937 85.3038 247.006 85.2665 247.758C85.2665 248.106 85.2292 248.379 85.2168 248.585C85.2127 248.687 85.1981 248.789 85.1732 248.889Z" fill="#263238"/>
<path d="M79.8651 192.438C78.6942 192.821 77.4889 193.09 76.2662 193.24C74.7744 193.495 73.4816 193.669 72.9159 193.706V193.563C73.1024 193.613 73.2018 193.656 73.1956 193.681C73.1894 193.706 73.0838 193.681 72.8911 193.681H72.4746L72.8911 193.557C73.4318 193.395 74.7123 193.134 76.2103 192.873C77.4114 192.609 78.6355 192.463 79.8651 192.438Z" fill="#263238"/>
<path d="M79.5542 194.433C78.4725 194.477 77.389 194.427 76.3159 194.284C75.2325 194.256 74.1534 194.138 73.0899 193.93C74.1705 193.782 75.2663 193.782 76.3469 193.93C77.434 193.951 78.5131 194.12 79.5542 194.433Z" fill="#263238"/>
<path d="M45.6849 141.954C46.4246 143.005 47.4875 143.371 48.7182 143.57C49.9586 143.718 51.2134 143.695 52.4476 143.502C60.3913 142.619 68.8073 141.805 76.5832 139.916C66.5137 140.475 55.8849 140.288 45.8155 140.854C45.8155 140.854 45.7284 141.544 45.7098 141.712" fill="#263238"/>
<path d="M56.0651 156.151L61.7338 178.173L61.336 157.077L56.0651 156.151Z" fill="#263238"/>
<path d="M54.9215 77.2116C52.7335 76.6273 50.4461 78.9582 50.3716 81.2207C50.3716 81.8423 50.4399 82.613 49.98 83.0854C49.52 83.5578 48.6995 83.4273 48.0096 83.4832C47.3049 83.5534 46.6453 83.8622 46.14 84.3584C45.6347 84.8547 45.3141 85.5086 45.2312 86.2119C45.1317 87.2188 45.5357 88.3004 45.1131 89.2203C44.6904 90.1402 43.7145 90.5132 43.037 91.1969C42.626 91.6623 42.3168 92.2085 42.1295 92.8005C41.9422 93.3924 41.8808 94.0171 41.9493 94.6342C42.0963 95.8678 42.4208 97.0736 42.9127 98.2144C43.3105 99.2773 43.8326 100.458 44.9017 100.837H54.0948L54.7847 97.3691L55.9097 100.837H57.4077L56.5997 78.318C56.5997 78.318 56.5935 77.6529 54.9215 77.2116Z" fill="#263238"/>
<path d="M42.3471 87.9647C42.3471 87.9647 42.2476 87.9647 42.0985 88.0144C41.9916 88.0727 41.9102 88.1685 41.8701 88.2834C41.8299 88.3982 41.8337 88.5239 41.8809 88.636C41.9963 88.8898 42.2042 89.09 42.4622 89.1957C42.7202 89.3013 43.0088 89.3045 43.2691 89.2045C43.5294 89.1045 43.7416 88.9089 43.8625 88.6577C43.9834 88.4065 44.0039 88.1186 43.9197 87.8528C43.7886 87.5546 43.6193 87.2746 43.4162 87.0199C42.9452 86.392 42.7419 85.6032 42.8506 84.8258C42.9062 84.3948 43.0609 83.9826 43.3024 83.6213C43.544 83.2601 43.8659 82.9596 44.2429 82.7435C44.6463 82.5073 45.1001 82.3701 45.5668 82.3431C46.0335 82.3161 46.5 82.4 46.9281 82.5881C47.7734 82.9549 48.5068 83.4956 49.3211 83.3837C49.5047 83.3765 49.6834 83.3232 49.8409 83.2287C49.9985 83.1342 50.1296 83.0015 50.2224 82.843C50.3533 82.4898 50.396 82.11 50.3467 81.7366C50.2977 81.0233 50.4015 80.3077 50.6513 79.6378C50.901 78.9678 51.2909 78.3589 51.795 77.8518C52.5046 77.187 53.4458 76.8257 54.418 76.8448C54.6757 76.8521 54.931 76.8961 55.1763 76.9754C55.2644 76.9967 55.3484 77.0324 55.4249 77.081C55.0927 77.0177 54.756 76.9803 54.418 76.9692C53.4858 76.9905 52.5968 77.3661 51.9317 78.0196C51.4617 78.5131 51.1018 79.1007 50.8758 79.7436C50.6497 80.3865 50.5626 81.07 50.6202 81.749C50.6757 82.1694 50.6244 82.5969 50.471 82.9922C50.3565 83.1984 50.1916 83.3723 49.9915 83.4973C49.7914 83.6223 49.5629 83.6945 49.3273 83.707C48.8667 83.751 48.4027 83.6694 47.9847 83.4708C47.5621 83.2905 47.1767 83.0605 46.7789 82.8927C46.3966 82.7252 45.9804 82.6497 45.5637 82.6724C45.147 82.6951 44.7414 82.8152 44.3796 83.0232C44.0428 83.2173 43.7553 83.4866 43.5397 83.81C43.3241 84.1335 43.1861 84.5024 43.1365 84.8879C43.0296 85.5966 43.2085 86.3188 43.6337 86.8956C43.846 87.1711 44.0196 87.4743 44.1496 87.7969C44.2082 87.9576 44.234 88.1284 44.2254 88.2992C44.2169 88.47 44.1742 88.6374 44.0999 88.7914C43.9713 89.0645 43.7515 89.2843 43.4784 89.413C43.2286 89.5242 42.9498 89.5525 42.6827 89.4938C42.4701 89.4533 42.2726 89.3555 42.1116 89.2109C41.9505 89.0663 41.8321 88.8804 41.769 88.6733C41.7235 88.5403 41.7303 88.395 41.788 88.2669C41.8457 88.1387 41.9501 88.0374 42.0798 87.9834C42.2601 87.8964 42.3533 87.9647 42.3471 87.9647Z" fill="#263238"/>
<path d="M77.9568 106.568C77.7217 106.601 77.4833 106.601 77.2482 106.568C76.6015 106.49 75.9717 106.308 75.3835 106.028C74.5062 105.616 73.7233 105.028 73.0837 104.3C72.2718 103.418 71.7246 102.325 71.5047 101.147C71.2849 99.9681 71.4013 98.7517 71.8406 97.6363C72.1803 96.7281 72.7053 95.9004 73.3821 95.206C73.8311 94.735 74.3538 94.3403 74.9298 94.0374C75.1337 93.9151 75.3563 93.8269 75.5886 93.7764C74.8371 94.205 74.1506 94.7387 73.5499 95.3614C72.9218 96.0511 72.436 96.858 72.1203 97.7358C71.711 98.8011 71.603 99.9586 71.808 101.081C72.013 102.204 72.5232 103.249 73.2826 104.101C73.8898 104.81 74.6286 105.394 75.4581 105.822C76.2535 106.183 77.0941 106.434 77.9568 106.568Z" fill="#263238"/>
<defs>
<linearGradient id="paint0_linear" x1="234.456" y1="238.136" x2="181.192" y2="260.004" gradientUnits="userSpaceOnUse">
<stop stop-color="#53EA98"/>
<stop offset="0.515625" stop-color="#8EC5FC"/>
<stop offset="1" stop-color="#AE8FC5"/>
</linearGradient>
<linearGradient id="paint1_linear" x1="236.42" y1="233.033" x2="217.297" y2="263.3" gradientUnits="userSpaceOnUse">
<stop stop-color="#53EA98"/>
<stop offset="0.515625" stop-color="#8EC5FC"/>
<stop offset="1" stop-color="#AE8FC5"/>
</linearGradient>
<linearGradient id="paint2_linear" x1="236.42" y1="233.033" x2="202.688" y2="239.089" gradientUnits="userSpaceOnUse">
<stop stop-color="#53EA98"/>
<stop offset="0.515625" stop-color="#8EC5FC"/>
<stop offset="1" stop-color="#AE8FC5"/>
</linearGradient>
<linearGradient id="paint3_linear" x1="217.288" y1="206.131" x2="193.174" y2="215.157" gradientUnits="userSpaceOnUse">
<stop stop-color="#53EA98"/>
<stop offset="0.515625" stop-color="#8EC5FC"/>
<stop offset="1" stop-color="#AE8FC5"/>
</linearGradient>
<linearGradient id="paint4_linear" x1="197.749" y1="209.256" x2="197.648" y2="210.622" gradientUnits="userSpaceOnUse">
<stop stop-color="#53EA98"/>
<stop offset="0.515625" stop-color="#8EC5FC"/>
<stop offset="1" stop-color="#AE8FC5"/>
</linearGradient>
<linearGradient id="paint5_linear" x1="214.329" y1="199.611" x2="190.612" y2="208.845" gradientUnits="userSpaceOnUse">
<stop stop-color="#53EA98"/>
<stop offset="0.515625" stop-color="#8EC5FC"/>
<stop offset="1" stop-color="#AE8FC5"/>
</linearGradient>
<linearGradient id="paint6_linear" x1="211.315" y1="202.246" x2="202.564" y2="213.709" gradientUnits="userSpaceOnUse">
<stop stop-color="#53EA98"/>
<stop offset="0.515625" stop-color="#8EC5FC"/>
<stop offset="1" stop-color="#AE8FC5"/>
</linearGradient>
<linearGradient id="paint7_linear" x1="211.265" y1="203.456" x2="205.884" y2="213.465" gradientUnits="userSpaceOnUse">
<stop stop-color="#53EA98"/>
<stop offset="0.515625" stop-color="#8EC5FC"/>
<stop offset="1" stop-color="#AE8FC5"/>
</linearGradient>
<linearGradient id="paint8_linear" x1="217.493" y1="212.459" x2="193.923" y2="221.988" gradientUnits="userSpaceOnUse">
<stop stop-color="#53EA98"/>
<stop offset="0.515625" stop-color="#8EC5FC"/>
<stop offset="1" stop-color="#AE8FC5"/>
</linearGradient>
<linearGradient id="paint9_linear" x1="219.78" y1="219.159" x2="196.543" y2="229.215" gradientUnits="userSpaceOnUse">
<stop stop-color="#53EA98"/>
<stop offset="0.515625" stop-color="#8EC5FC"/>
<stop offset="1" stop-color="#AE8FC5"/>
</linearGradient>
<linearGradient id="paint10_linear" x1="200.213" y1="222.16" x2="200.139" y2="223.528" gradientUnits="userSpaceOnUse">
<stop stop-color="#53EA98"/>
<stop offset="0.515625" stop-color="#8EC5FC"/>
<stop offset="1" stop-color="#AE8FC5"/>
</linearGradient>
<linearGradient id="paint11_linear" x1="29.7618" y1="186.897" x2="6.66317" y2="188.133" gradientUnits="userSpaceOnUse">
<stop stop-color="#53EA98"/>
<stop offset="0.515625" stop-color="#8EC5FC"/>
<stop offset="1" stop-color="#AE8FC5"/>
</linearGradient>
<linearGradient id="paint12_linear" x1="17.8999" y1="213.547" x2="-1.76138" y2="215.38" gradientUnits="userSpaceOnUse">
<stop stop-color="#53EA98"/>
<stop offset="0.515625" stop-color="#8EC5FC"/>
<stop offset="1" stop-color="#AE8FC5"/>
</linearGradient>
<linearGradient id="paint13_linear" x1="27.0503" y1="242.313" x2="13.0877" y2="243.849" gradientUnits="userSpaceOnUse">
<stop stop-color="#53EA98"/>
<stop offset="0.515625" stop-color="#8EC5FC"/>
<stop offset="1" stop-color="#AE8FC5"/>
</linearGradient>
<linearGradient id="paint14_linear" x1="243.071" y1="20.4498" x2="193.275" y2="30.3918" gradientUnits="userSpaceOnUse">
<stop stop-color="#53EA98"/>
<stop offset="0.515625" stop-color="#8EC5FC"/>
<stop offset="1" stop-color="#AE8FC5"/>
</linearGradient>
<linearGradient id="paint15_linear" x1="240.305" y1="22.6937" x2="195.551" y2="31.8912" gradientUnits="userSpaceOnUse">
<stop stop-color="#53EA98"/>
<stop offset="0.515625" stop-color="#8EC5FC"/>
<stop offset="1" stop-color="#AE8FC5"/>
</linearGradient>
<linearGradient id="paint16_linear" x1="231.858" y1="27.2933" x2="204.228" y2="32.5449" gradientUnits="userSpaceOnUse">
<stop stop-color="#53EA98"/>
<stop offset="0.515625" stop-color="#8EC5FC"/>
<stop offset="1" stop-color="#AE8FC5"/>
</linearGradient>
<linearGradient id="paint17_linear" x1="250.442" y1="32.7382" x2="238.379" y2="33.662" gradientUnits="userSpaceOnUse">
<stop stop-color="#53EA98"/>
<stop offset="0.515625" stop-color="#8EC5FC"/>
<stop offset="1" stop-color="#AE8FC5"/>
</linearGradient>
<linearGradient id="paint18_linear" x1="250.592" y1="55.4255" x2="246.3" y2="55.6545" gradientUnits="userSpaceOnUse">
<stop stop-color="#53EA98"/>
<stop offset="0.515625" stop-color="#8EC5FC"/>
<stop offset="1" stop-color="#AE8FC5"/>
</linearGradient>
<linearGradient id="paint19_linear" x1="193.737" y1="55.4255" x2="189.445" y2="55.6545" gradientUnits="userSpaceOnUse">
<stop stop-color="#53EA98"/>
<stop offset="0.515625" stop-color="#8EC5FC"/>
<stop offset="1" stop-color="#AE8FC5"/>
</linearGradient>
<linearGradient id="paint20_linear" x1="257.702" y1="51.895" x2="245.853" y2="81.1377" gradientUnits="userSpaceOnUse">
<stop stop-color="#53EA98"/>
<stop offset="0.515625" stop-color="#8EC5FC"/>
<stop offset="1" stop-color="#AE8FC5"/>
</linearGradient>
</defs>
</svg>
