<svg viewBox="0 0 36 36" fill="none" xmlns="http://www.w3.org/2000/svg">
<path d="M14.6503 12.2662C14.6503 9.83194 12.6684 7.85193 10.2327 7.85193C7.79703 7.85193 5.81482 9.83194 5.81482 12.2662C5.81482 14.7005 7.79703 16.6811 10.2327 16.6811C12.6684 16.6811 14.6503 14.7005 14.6503 12.2662ZM10.9106 11.5595C10.9106 10.9773 11.3824 10.5049 11.9652 10.5049C12.5472 10.5049 13.0199 10.9773 13.0199 11.5595V12.9735C13.0199 13.5558 12.5472 14.0282 11.9652 14.0282C11.3824 14.0282 10.9106 13.5558 10.9106 12.9735V11.5595ZM9.55484 12.9735C9.55484 13.5558 9.08298 14.0282 8.50015 14.0282C7.91788 14.0282 7.44547 13.5558 7.44547 12.9735V11.5595C7.44547 10.9773 7.91788 10.5049 8.50015 10.5049C9.08298 10.5049 9.55484 10.9773 9.55484 11.5595V12.9735Z" fill="#94A1E3"/>
<path d="M24.7961 13.4992C24.7961 15.296 26.2579 16.7577 28.0547 16.7577H28.6408V29.5746C28.6408 30.7914 27.6501 31.7812 26.4323 31.7812C25.2144 31.7812 24.2238 30.7914 24.2238 29.5746V27.9316C24.2238 25.6311 22.3511 23.7593 20.0495 23.7593C17.7479 23.7593 15.8752 25.6311 15.8752 27.9316V29.4892C15.8752 30.7529 14.8461 31.7812 13.5813 31.7812C12.9685 31.7812 12.3923 31.5428 11.9592 31.11C11.526 30.6771 11.2874 30.1017 11.2874 29.4898V22.494H16.6297C18.7449 22.494 20.4653 20.7732 20.4653 18.6584V5.87494C20.4653 3.7598 18.7449 2.03934 16.6297 2.03934H3.8356C1.72046 2.03934 0 3.7598 0 5.87494V18.6584C0 20.7732 1.72046 22.494 3.8356 22.494H9.17798V29.4898C9.17798 30.6656 9.63611 31.7708 10.468 32.6022C11.2994 33.433 12.4049 33.8906 13.5807 33.8906H13.5813C16.009 33.8904 17.9843 31.9158 17.9843 29.4892V27.9316C17.9843 26.794 18.9108 25.8687 20.0492 25.8687C21.188 25.8687 22.1144 26.794 22.1144 27.9316V29.5746C22.1144 31.9546 24.0513 33.8906 26.4323 33.8906C28.813 33.8906 30.7502 31.9546 30.7502 29.5746V16.7577H31.336C33.1328 16.7577 34.5948 15.296 34.5948 13.4992V11.1824H24.7959V13.4992H24.7961ZM3.70541 12.2662C3.70541 8.66904 6.63327 5.74255 10.2327 5.74255C13.8318 5.74255 16.7596 8.66904 16.7596 12.2662C16.7596 15.8634 13.8318 18.7905 10.2327 18.7905C6.63327 18.7905 3.70541 15.8634 3.70541 12.2662Z" fill="#94A1E3"/>
<path d="M34.9453 6.96368H32.4825V3.09375C32.4825 2.5112 32.0103 2.03906 31.4278 2.03906C30.8452 2.03906 30.3731 2.5112 30.3731 3.09375V6.96368H29.0179V3.09375C29.0179 2.5112 28.5458 2.03906 27.9632 2.03906C27.3807 2.03906 26.9085 2.5112 26.9085 3.09375V6.96368H24.4457C23.8634 6.96368 23.391 7.43582 23.391 8.01837C23.391 8.60065 23.8634 9.07306 24.4457 9.07306H34.9453C35.5279 9.07306 36 8.60065 36 8.01837C36 7.43582 35.5279 6.96368 34.9453 6.96368Z" fill="#94A1E3"/>
</svg>
